<?xml version="1.0" encoding="UTF-8" standalone="no"?>
<!-- Created with Inkscape (http://www.inkscape.org/) -->

<svg
   xmlns:dc="http://purl.org/dc/elements/1.1/"
   xmlns:cc="http://creativecommons.org/ns#"
   xmlns:rdf="http://www.w3.org/1999/02/22-rdf-syntax-ns#"
   xmlns:svg="http://www.w3.org/2000/svg"
   xmlns="http://www.w3.org/2000/svg"
   xmlns:sodipodi="http://sodipodi.sourceforge.net/DTD/sodipodi-0.dtd"
   xmlns:inkscape="http://www.inkscape.org/namespaces/inkscape"
   width="74.83667mm"
   height="38.420929mm"
   viewBox="0 0 74.836657 38.420929"
   version="1.1"
   id="svg8"
   sodipodi:docname="protocol-model.svg"
   inkscape:version="0.92.2 5c3e80d, 2017-08-06">
  <defs
     id="defs2">
    <marker
       inkscape:isstock="true"
       style="overflow:visible"
       id="marker6122"
       refX="0"
       refY="0"
       orient="auto"
       inkscape:stockid="Arrow2Mend">
      <path
         inkscape:connector-curvature="0"
         transform="scale(-0.6)"
         d="M 8.7185878,4.0337352 -2.2072895,0.01601326 8.7185884,-4.0017078 c -1.7454984,2.3720609 -1.7354408,5.6174519 -6e-7,8.035443 z"
         style="fill:#000000;fill-opacity:1;fill-rule:evenodd;stroke:#000000;stroke-width:0.625;stroke-linejoin:round;stroke-opacity:1"
         id="path6120" />
    </marker>
    <marker
       inkscape:stockid="Arrow2Mend"
       orient="auto"
       refY="0"
       refX="0"
       id="marker5821"
       style="overflow:visible"
       inkscape:isstock="true"
       inkscape:collect="always">
      <path
         id="path5819"
         style="fill:#000000;fill-opacity:1;fill-rule:evenodd;stroke:#000000;stroke-width:0.625;stroke-linejoin:round;stroke-opacity:1"
         d="M 8.7185878,4.0337352 -2.2072895,0.01601326 8.7185884,-4.0017078 c -1.7454984,2.3720609 -1.7354408,5.6174519 -6e-7,8.035443 z"
         transform="scale(-0.6)"
         inkscape:connector-curvature="0" />
    </marker>
    <marker
       inkscape:isstock="true"
       style="overflow:visible"
       id="marker5815"
       refX="0"
       refY="0"
       orient="auto"
       inkscape:stockid="Arrow2Mend">
      <path
         transform="scale(-0.6)"
         d="M 8.7185878,4.0337352 -2.2072895,0.01601326 8.7185884,-4.0017078 c -1.7454984,2.3720609 -1.7354408,5.6174519 -6e-7,8.035443 z"
         style="fill:#000000;fill-opacity:1;fill-rule:evenodd;stroke:#000000;stroke-width:0.625;stroke-linejoin:round;stroke-opacity:1"
         id="path5813"
         inkscape:connector-curvature="0" />
    </marker>
    <marker
       inkscape:isstock="true"
       style="overflow:visible"
       id="marker5811"
       refX="0"
       refY="0"
       orient="auto"
       inkscape:stockid="Arrow2Mend">
      <path
         transform="scale(-0.6)"
         d="M 8.7185878,4.0337352 -2.2072895,0.01601326 8.7185884,-4.0017078 c -1.7454984,2.3720609 -1.7354408,5.6174519 -6e-7,8.035443 z"
         style="fill:#000000;fill-opacity:1;fill-rule:evenodd;stroke:#000000;stroke-width:0.625;stroke-linejoin:round;stroke-opacity:1"
         id="path5809"
         inkscape:connector-curvature="0" />
    </marker>
    <marker
       inkscape:isstock="true"
       style="overflow:visible"
       id="marker5807"
       refX="0"
       refY="0"
       orient="auto"
       inkscape:stockid="Arrow2Mend">
      <path
         transform="scale(-0.6)"
         d="M 8.7185878,4.0337352 -2.2072895,0.01601326 8.7185884,-4.0017078 c -1.7454984,2.3720609 -1.7354408,5.6174519 -6e-7,8.035443 z"
         style="fill:#000000;fill-opacity:1;fill-rule:evenodd;stroke:#000000;stroke-width:0.625;stroke-linejoin:round;stroke-opacity:1"
         id="path5805"
         inkscape:connector-curvature="0" />
    </marker>
    <marker
       inkscape:stockid="Arrow2Mend"
       orient="auto"
       refY="0"
       refX="0"
       id="Arrow2Mend"
       style="overflow:visible"
       inkscape:isstock="true"
       inkscape:collect="always">
      <path
         id="path5564"
         style="fill:#000000;fill-opacity:1;fill-rule:evenodd;stroke:#000000;stroke-width:0.625;stroke-linejoin:round;stroke-opacity:1"
         d="M 8.7185878,4.0337352 -2.2072895,0.01601326 8.7185884,-4.0017078 c -1.7454984,2.3720609 -1.7354408,5.6174519 -6e-7,8.035443 z"
         transform="scale(-0.6)"
         inkscape:connector-curvature="0" />
    </marker>
    <marker
       inkscape:stockid="Arrow2Lend"
       orient="auto"
       refY="0"
       refX="0"
       id="marker5389"
       style="overflow:visible"
       inkscape:isstock="true">
      <path
         inkscape:connector-curvature="0"
         id="path5387"
         style="fill:#000000;fill-opacity:1;fill-rule:evenodd;stroke:#000000;stroke-width:0.625;stroke-linejoin:round;stroke-opacity:1"
         d="M 8.7185878,4.0337352 -2.2072895,0.01601326 8.7185884,-4.0017078 c -1.7454984,2.3720609 -1.7354408,5.6174519 -6e-7,8.035443 z"
         transform="matrix(-1.1,0,0,-1.1,-1.1,0)" />
    </marker>
    <marker
       inkscape:isstock="true"
       style="overflow:visible"
       id="marker12886"
       refX="0"
       refY="0"
       orient="auto"
       inkscape:stockid="Arrow2Lend">
      <path
         transform="matrix(-1.1,0,0,-1.1,-1.1,0)"
         d="M 8.7185878,4.0337352 -2.2072895,0.01601326 8.7185884,-4.0017078 c -1.7454984,2.3720609 -1.7354408,5.6174519 -6e-7,8.035443 z"
         style="fill:#000000;fill-opacity:1;fill-rule:evenodd;stroke:#000000;stroke-width:0.625;stroke-linejoin:round;stroke-opacity:1"
         id="path12884"
         inkscape:connector-curvature="0" />
    </marker>
    <marker
       inkscape:isstock="true"
       style="overflow:visible"
       id="marker6866"
       refX="0"
       refY="0"
       orient="auto"
       inkscape:stockid="Arrow2Lend">
      <path
         transform="matrix(-1.1,0,0,-1.1,-1.1,0)"
         d="M 8.7185878,4.0337352 -2.2072895,0.01601326 8.7185884,-4.0017078 c -1.7454984,2.3720609 -1.7354408,5.6174519 -6e-7,8.035443 z"
         style="fill:#000000;fill-opacity:1;fill-rule:evenodd;stroke:#000000;stroke-width:0.625;stroke-linejoin:round;stroke-opacity:1"
         id="path6864"
         inkscape:connector-curvature="0" />
    </marker>
    <marker
       inkscape:stockid="Arrow1Lend"
       orient="auto"
       refY="0"
       refX="0"
       id="Arrow1Lend"
       style="overflow:visible"
       inkscape:isstock="true">
      <path
         id="path4721"
         d="M 0,0 5,-5 -12.5,0 5,5 Z"
         style="fill:#000000;fill-opacity:1;fill-rule:evenodd;stroke:#000000;stroke-width:1.00000003pt;stroke-opacity:1"
         transform="matrix(-0.8,0,0,-0.8,-10,0)"
         inkscape:connector-curvature="0" />
    </marker>
    <marker
       inkscape:stockid="Arrow1Send"
       orient="auto"
       refY="0"
       refX="0"
       id="Arrow1Send"
       style="overflow:visible"
       inkscape:isstock="true">
      <path
         id="path4733"
         d="M 0,0 5,-5 -12.5,0 5,5 Z"
         style="fill:#000000;fill-opacity:1;fill-rule:evenodd;stroke:#000000;stroke-width:1.00000003pt;stroke-opacity:1"
         transform="matrix(-0.2,0,0,-0.2,-1.2,0)"
         inkscape:connector-curvature="0" />
    </marker>
    <marker
       inkscape:isstock="true"
       style="overflow:visible"
       id="marker12886-3"
       refX="0"
       refY="0"
       orient="auto"
       inkscape:stockid="Arrow2Lend">
      <path
         transform="matrix(-1.1,0,0,-1.1,-1.1,0)"
         d="M 8.7185878,4.0337352 -2.2072895,0.01601326 8.7185884,-4.0017078 c -1.7454984,2.3720609 -1.7354408,5.6174519 -6e-7,8.035443 z"
         style="fill:#000000;fill-opacity:1;fill-rule:evenodd;stroke:#000000;stroke-width:0.625;stroke-linejoin:round;stroke-opacity:1"
         id="path12884-6"
         inkscape:connector-curvature="0" />
    </marker>
    <marker
       inkscape:isstock="true"
       style="overflow:visible"
       id="marker1628"
       refX="0"
       refY="0"
       orient="auto"
       inkscape:stockid="Arrow2Mend">
      <path
         transform="scale(-0.6)"
         d="M 8.7185878,4.0337352 -2.2072895,0.01601326 8.7185884,-4.0017078 c -1.7454984,2.3720609 -1.7354408,5.6174519 -6e-7,8.035443 z"
         style="fill:#000000;fill-opacity:1;fill-rule:evenodd;stroke:#000000;stroke-width:0.625;stroke-linejoin:round;stroke-opacity:1"
         id="path1626"
         inkscape:connector-curvature="0" />
    </marker>
  </defs>
  <sodipodi:namedview
     id="base"
     pagecolor="#ffffff"
     bordercolor="#666666"
     borderopacity="1.0"
     inkscape:pageopacity="0.0"
     inkscape:pageshadow="2"
     inkscape:zoom="2"
     inkscape:cx="130.57759"
     inkscape:cy="102.57947"
     inkscape:document-units="mm"
     inkscape:current-layer="layer1"
     showgrid="false"
     inkscape:snap-center="false"
     inkscape:window-width="1916"
     inkscape:window-height="1041"
     inkscape:window-x="0"
     inkscape:window-y="37"
     inkscape:window-maximized="0"
     units="mm"
     showguides="true"
     inkscape:guide-bbox="true"
     fit-margin-top="0"
     fit-margin-left="0"
     fit-margin-right="0"
     fit-margin-bottom="0"
     inkscape:snap-object-midpoints="false"
     inkscape:snap-bbox="true"
     inkscape:snap-bbox-edge-midpoints="true"
     inkscape:bbox-nodes="true"
     inkscape:snap-bbox-midpoints="true"
     inkscape:snap-smooth-nodes="true"
     inkscape:snap-intersection-paths="true"
     inkscape:snap-global="true"
     inkscape:snap-text-baseline="true">
    <sodipodi:guide
       position="2.869182,25.432297"
       orientation="1,0"
       id="guide5837"
       inkscape:locked="false" />
    <sodipodi:guide
       position="-0.11668671,28.900654"
       orientation="0,1"
       id="guide5473"
       inkscape:locked="false" />
    <sodipodi:guide
       position="-1.9102496,9.2117754"
       orientation="0,1"
       id="guide5475"
       inkscape:locked="false" />
    <sodipodi:guide
       position="136.7585,28.720847"
       orientation="1,0"
       id="guide6102"
       inkscape:locked="false" />
    <sodipodi:guide
       position="129.81319,22.900014"
       orientation="1,0"
       id="guide6104"
       inkscape:locked="false" />
    <sodipodi:guide
       position="74.836651,19.054345"
       orientation="1,0"
       id="guide6106"
       inkscape:locked="false" />
    <sodipodi:guide
       position="8.2130827,35.221497"
       orientation="0,1"
       id="guide6108"
       inkscape:locked="false" />
    <sodipodi:guide
       position="6.7586498,30.519595"
       orientation="1,0"
       id="guide6110"
       inkscape:locked="false" />
    <sodipodi:guide
       position="1.208903e-07,19.054345"
       orientation="1,0"
       id="guide6112"
       inkscape:locked="false" />
    <sodipodi:guide
       position="17.613432,19.237576"
       orientation="1,0"
       id="guide6114"
       inkscape:locked="false" />
    <sodipodi:guide
       position="14.351268,23.370256"
       orientation="0,1"
       id="guide6116"
       inkscape:locked="false" />
    <sodipodi:guide
       position="38.647885,24.244674"
       orientation="0,1"
       id="guide6124"
       inkscape:locked="false" />
    <sodipodi:guide
       position="80.104602,16.781524"
       orientation="1,0"
       id="guide6126"
       inkscape:locked="false" />
    <sodipodi:guide
       position="61.204317,18.981136"
       orientation="1,0"
       id="guide6128"
       inkscape:locked="false" />
    <sodipodi:guide
       position="40.901659,18.981137"
       orientation="1,0"
       id="guide6130"
       inkscape:locked="false" />
    <sodipodi:guide
       position="37.418325,9.2078295"
       orientation="1,0"
       id="guide6132"
       inkscape:locked="false" />
    <sodipodi:guide
       position="28.580492,3.068787"
       orientation="0,1"
       id="guide6134"
       inkscape:locked="false" />
    <sodipodi:guide
       position="38.893743,14.807972"
       orientation="0,1"
       id="guide935"
       inkscape:locked="false" />
  </sodipodi:namedview>
  <metadata
     id="metadata5">
    <rdf:RDF>
      <cc:Work
         rdf:about="">
        <dc:format>image/svg+xml</dc:format>
        <dc:type
           rdf:resource="http://purl.org/dc/dcmitype/StillImage" />
        <dc:title />
      </cc:Work>
    </rdf:RDF>
  </metadata>
  <g
     inkscape:label="Layer 1"
     inkscape:groupmode="layer"
     id="layer1"
     transform="translate(-39.289391,-147.99115)">
    <text
       xml:space="preserve"
       style="font-style:normal;font-weight:normal;font-size:4.13393021px;line-height:125%;font-family:'Bitstream Vera Sans';letter-spacing:0px;word-spacing:0px;fill:#000000;fill-opacity:1;stroke:none;stroke-width:0.26458332;stroke-linecap:butt;stroke-linejoin:miter;stroke-miterlimit:4;stroke-dasharray:none;stroke-opacity:1"
       x="40.436077"
       y="163.66119"
       id="text4489-3"
       transform="scale(0.99970829,1.0002918)"><tspan
         sodipodi:role="line"
         id="tspan4487-6"
         x="40.436077"
         y="163.66119"
         style="stroke-width:0.26458332;stroke-miterlimit:4;stroke-dasharray:none">Action</tspan></text>
    <text
       xml:space="preserve"
       style="font-style:normal;font-weight:normal;font-size:4.13393021px;line-height:125%;font-family:'Bitstream Vera Sans';letter-spacing:0px;word-spacing:0px;fill:#000000;fill-opacity:1;stroke:none;stroke-width:0.26458332;stroke-linecap:butt;stroke-linejoin:miter;stroke-miterlimit:4;stroke-dasharray:none;stroke-opacity:1"
       x="67.613594"
       y="163.59761"
       id="text4489-3-7"
       transform="scale(0.99970829,1.0002918)"><tspan
         sodipodi:role="line"
         id="tspan4487-6-5"
         x="67.613594"
         y="163.59761"
         style="stroke-width:0.26458332;stroke-miterlimit:4;stroke-dasharray:none">Data</tspan></text>
    <text
       id="text4547"
       y="171.49551"
       x="89.709831"
       style="font-style:normal;font-weight:normal;font-size:4.13393021px;line-height:125%;font-family:'Bitstream Vera Sans';letter-spacing:0px;word-spacing:0px;fill:#000000;fill-opacity:1;stroke:none;stroke-width:0.26458332;stroke-linecap:butt;stroke-linejoin:miter;stroke-miterlimit:4;stroke-dasharray:none;stroke-opacity:1"
       xml:space="preserve"
       transform="scale(0.99970829,1.0002918)"><tspan
         style="stroke-width:0.26458332;stroke-miterlimit:4;stroke-dasharray:none"
         y="171.49551"
         x="89.709831"
         id="tspan4545"
         sodipodi:role="line">Semantics</tspan></text>
    <rect
       ry="0"
       rx="0"
       y="159.23097"
       x="40.053337"
       height="5.872829"
       width="13.523892"
       id="rect4565"
       style="fill:none;fill-opacity:1;stroke:#000000;stroke-width:0.26458332;stroke-linejoin:miter;stroke-miterlimit:4;stroke-dasharray:none;stroke-dashoffset:0;stroke-opacity:1" />
    <rect
       style="fill:none;fill-opacity:1;stroke:#000000;stroke-width:0.26458332;stroke-linejoin:miter;stroke-miterlimit:4;stroke-dasharray:none;stroke-dashoffset:0;stroke-opacity:1"
       id="rect4567"
       width="10.229237"
       height="5.872829"
       x="67.575752"
       y="159.23099"
       rx="0"
       ry="0" />
    <rect
       style="fill:none;fill-opacity:1;stroke:#000000;stroke-width:0.26458332;stroke-linejoin:miter;stroke-miterlimit:4;stroke-dasharray:none;stroke-dashoffset:0;stroke-opacity:1"
       id="rect4571"
       width="23.87418"
       height="5.872829"
       x="88.556625"
       y="167.56323"
       rx="0"
       ry="0" />
    <text
       xml:space="preserve"
       style="font-style:normal;font-weight:normal;font-size:2.9765625px;line-height:125%;font-family:'Bitstream Vera Sans';letter-spacing:0px;word-spacing:0px;fill:#000000;fill-opacity:1;stroke:none;stroke-width:0.26458332px;stroke-linecap:butt;stroke-linejoin:miter;stroke-opacity:1"
       x="51.331543"
       y="180.88429"
       id="text4668"><tspan
         sodipodi:role="line"
         id="tspan4666"
         x="51.331543"
         y="180.88429"
         style="stroke-width:0.26458332px">enveloped in</tspan></text>
    <text
       id="text4678"
       y="151.01593"
       x="43.874866"
       style="font-style:normal;font-weight:normal;font-size:2.9765625px;line-height:100%;font-family:'Bitstream Vera Sans';text-align:center;letter-spacing:0px;word-spacing:0px;text-anchor:middle;fill:#000000;fill-opacity:1;stroke:none;stroke-width:0.26458332px;stroke-linecap:butt;stroke-linejoin:miter;stroke-opacity:1"
       xml:space="preserve"><tspan
         style="line-height:100%;text-align:center;text-anchor:middle;stroke-width:0.26458332px"
         y="151.01593"
         x="43.874866"
         sodipodi:role="line"
         id="tspan5829">orders</tspan></text>
    <rect
       style="fill:none;fill-opacity:1;stroke:#000000;stroke-width:0.26458332;stroke-linejoin:miter;stroke-miterlimit:4;stroke-dasharray:none;stroke-dashoffset:0;stroke-opacity:1"
       id="rect4680"
       width="74.572083"
       height="19.428448"
       x="39.421684"
       y="157.64351"
       rx="0.53453904"
       ry="0.5345391" />
    <text
       id="text4686"
       y="165.14972"
       x="81.043259"
       style="font-style:normal;font-weight:normal;font-size:2.9765625px;line-height:125%;font-family:'Bitstream Vera Sans';letter-spacing:0px;word-spacing:0px;fill:#000000;fill-opacity:1;stroke:none;stroke-width:0.26458332px;stroke-linecap:butt;stroke-linejoin:miter;stroke-opacity:1"
       xml:space="preserve"><tspan
         style="stroke-width:0.26458332px"
         y="165.14972"
         x="81.043259"
         id="tspan4684"
         sodipodi:role="line">has</tspan></text>
    <text
       xml:space="preserve"
       style="font-style:normal;font-weight:normal;font-size:2.9765625px;line-height:125%;font-family:'Bitstream Vera Sans';letter-spacing:0px;word-spacing:0px;fill:#000000;fill-opacity:1;stroke:none;stroke-width:0.26458332px;stroke-linecap:butt;stroke-linejoin:miter;stroke-opacity:1"
       x="39.686272"
       y="176.51605"
       id="text4690"><tspan
         sodipodi:role="line"
         id="tspan4688"
         x="39.686272"
         y="176.51605"
         style="stroke-width:0.26458332px">Interaction</tspan></text>
    <text
       transform="scale(0.99970829,1.0002918)"
       id="text4706"
       y="160.78778"
       x="77.954971"
       style="font-style:normal;font-weight:normal;font-size:3.09726644px;line-height:125%;font-family:'Bitstream Vera Sans';letter-spacing:0px;word-spacing:0px;fill:#000000;fill-opacity:1;stroke:none;stroke-width:0.26458332;stroke-linecap:butt;stroke-linejoin:miter;stroke-miterlimit:4;stroke-dasharray:none;stroke-opacity:1"
       xml:space="preserve"><tspan
         id="tspan4704"
         style="font-weight:bold;font-size:2.46944451px;stroke-width:0.26458332;stroke-miterlimit:4;stroke-dasharray:none"
         y="160.78778"
         x="77.954971"
         sodipodi:role="line">D</tspan></text>
    <text
       xml:space="preserve"
       style="font-style:normal;font-weight:normal;font-size:3.09726644px;line-height:125%;font-family:'Bitstream Vera Sans';letter-spacing:0px;word-spacing:0px;fill:#000000;fill-opacity:1;stroke:none;stroke-width:0.26458332;stroke-linecap:butt;stroke-linejoin:miter;stroke-miterlimit:4;stroke-dasharray:none;stroke-opacity:1"
       x="53.709557"
       y="160.78778"
       id="text4710"
       transform="scale(0.99970829,1.0002918)"><tspan
         sodipodi:role="line"
         x="53.709557"
         y="160.78778"
         style="font-weight:bold;font-size:2.46944451px;stroke-width:0.26458332;stroke-miterlimit:4;stroke-dasharray:none"
         id="tspan4708">D</tspan></text>
    <g
       id="g6081"
       transform="translate(77.988759,-9.392708)">
      <rect
         style="fill:none;fill-opacity:1;stroke:#000000;stroke-width:0.26458332;stroke-linejoin:miter;stroke-miterlimit:4;stroke-dasharray:none;stroke-dashoffset:0;stroke-opacity:1"
         id="rect5369"
         width="20.543425"
         height="5.8729501"
         x="15.461575"
         y="157.64682"
         rx="0"
         ry="0" />
      <text
         xml:space="preserve"
         style="font-style:normal;font-weight:normal;font-size:4.13396168px;line-height:125%;font-family:'Bitstream Vera Sans';letter-spacing:0px;word-spacing:0px;fill:#000000;fill-opacity:1;stroke:none;stroke-width:0.26458332;stroke-linecap:butt;stroke-linejoin:miter;stroke-miterlimit:4;stroke-dasharray:none;stroke-opacity:1"
         x="15.95717"
         y="161.67557"
         id="text5373"
         transform="scale(0.9996998,1.0003003)"><tspan
           sodipodi:role="line"
           id="tspan5371"
           x="15.95717"
           y="161.67557"
           style="stroke-width:0.26458332;stroke-miterlimit:4;stroke-dasharray:none">Paradigm</tspan></text>
    </g>
    <g
       id="g6088"
       transform="translate(32.993993,-19.208458)">
      <rect
         ry="0"
         rx="0"
         y="167.46254"
         x="17.048941"
         height="5.8729925"
         width="17.411076"
         id="rect4485"
         style="fill:none;fill-opacity:1;stroke:#000000;stroke-width:0.26458332;stroke-linejoin:miter;stroke-miterlimit:4;stroke-dasharray:none;stroke-dashoffset:0;stroke-opacity:1" />
      <text
         transform="scale(0.99969569,1.0003044)"
         id="text4489"
         y="171.88834"
         x="17.415672"
         style="font-style:normal;font-weight:normal;font-size:4.13396168px;line-height:125%;font-family:'Bitstream Vera Sans';letter-spacing:0px;word-spacing:0px;fill:#000000;fill-opacity:1;stroke:none;stroke-width:0.26458332;stroke-linecap:butt;stroke-linejoin:miter;stroke-miterlimit:4;stroke-dasharray:none;stroke-opacity:1"
         xml:space="preserve"><tspan
           style="stroke-width:0.26458332;stroke-miterlimit:4;stroke-dasharray:none"
           y="171.88834"
           x="17.415672"
           id="tspan4487"
           sodipodi:role="line">Protocol</tspan></text>
      <text
         xml:space="preserve"
         style="font-style:normal;font-weight:normal;font-size:3.0972898px;line-height:125%;font-family:'Bitstream Vera Sans';letter-spacing:0px;word-spacing:0px;fill:#000000;fill-opacity:1;stroke:none;stroke-width:0.26458332;stroke-linecap:butt;stroke-linejoin:miter;stroke-miterlimit:4;stroke-dasharray:none;stroke-opacity:1"
         x="34.594746"
         y="168.94897"
         id="text4714"
         transform="scale(0.99969569,1.0003044)"><tspan
           sodipodi:role="line"
           x="34.594746"
           y="168.94897"
           style="font-weight:bold;font-size:2.46946311px;fill:#000000;fill-opacity:1;stroke-width:0.26458332;stroke-miterlimit:4;stroke-dasharray:none"
           id="tspan4712">D</tspan></text>
    </g>
    <path
       style="fill:none;fill-rule:evenodd;stroke:#000000;stroke-width:0.26499999;stroke-linecap:butt;stroke-linejoin:miter;stroke-miterlimit:4;stroke-dasharray:none;stroke-opacity:1;marker-end:url(#marker5815)"
       d="m 46.048041,177.2003 c 0,5.34122 18.921665,6.14299 24.502783,6.14299 h 1.881367"
       id="path4716"
       inkscape:connector-curvature="0"
       sodipodi:nodetypes="csc" />
    <path
       sodipodi:nodetypes="ccc"
       inkscape:connector-curvature="0"
       id="path7778"
       d="m 49.910642,151.19058 c -5.343901,0 -5.340127,4.0505 -5.341101,4.5334 l -0.0028,1.38806"
       style="fill:none;fill-rule:evenodd;stroke:#000000;stroke-width:0.26499999;stroke-linecap:butt;stroke-linejoin:miter;stroke-miterlimit:4;stroke-dasharray:none;stroke-opacity:1;marker-end:url(#marker5811)" />
    <path
       style="fill:none;fill-rule:evenodd;stroke:#000000;stroke-width:0.26499999;stroke-linecap:butt;stroke-linejoin:miter;stroke-miterlimit:4;stroke-dasharray:none;stroke-opacity:1;marker-end:url(#Arrow2Mend)"
       d="m 77.7413,162.16721 c 22.75506,-0.009 22.75241,1.78114 22.75241,3.66213 v 1.28493"
       id="path11710"
       inkscape:connector-curvature="0"
       sodipodi:nodetypes="ccc" />
    <text
       xml:space="preserve"
       style="font-style:normal;font-weight:normal;font-size:2.97658491px;line-height:100%;font-family:'Bitstream Vera Sans';letter-spacing:0px;word-spacing:0px;fill:#000000;fill-opacity:1;stroke:none;stroke-width:0.26458332px;stroke-linecap:butt;stroke-linejoin:miter;stroke-opacity:1"
       x="72.500374"
       y="154.1869"
       id="text5379"
       transform="scale(0.9999879,1.0000121)"><tspan
         id="tspan5377"
         sodipodi:role="line"
         x="72.500374"
         y="154.1869"
         style="line-height:100%;stroke-width:0.26458332px">based on</tspan></text>
    <path
       style="fill:none;fill-rule:evenodd;stroke:#000000;stroke-width:0.26499999;stroke-linecap:butt;stroke-linejoin:miter;stroke-miterlimit:4;stroke-dasharray:none;stroke-opacity:1;marker-end:url(#marker5807)"
       d="M 67.454009,151.19313 H 92.917405"
       id="path5385"
       inkscape:connector-curvature="0"
       sodipodi:nodetypes="cc" />
    <text
       transform="scale(0.99970829,1.0002918)"
       xml:space="preserve"
       style="font-style:normal;font-weight:normal;font-size:4.13393021px;line-height:125%;font-family:'Bitstream Vera Sans';letter-spacing:0px;word-spacing:0px;fill:#000000;fill-opacity:1;stroke:none;stroke-width:0.26458332;stroke-linecap:butt;stroke-linejoin:miter;stroke-miterlimit:4;stroke-dasharray:none;stroke-opacity:1"
       x="42.60038"
       y="171.49551"
       id="text5512"><tspan
         sodipodi:role="line"
         id="tspan5510"
         x="42.60038"
         y="171.49551"
         style="stroke-width:0.26458332;stroke-miterlimit:4;stroke-dasharray:none">Semantics</tspan></text>
    <rect
       ry="0"
       rx="0"
       y="167.56323"
       x="41.460754"
       height="5.872829"
       width="23.87418"
       id="rect5514"
       style="fill:none;fill-opacity:1;stroke:#000000;stroke-width:0.26458332;stroke-linejoin:miter;stroke-miterlimit:4;stroke-dasharray:none;stroke-dashoffset:0;stroke-opacity:1" />
    <path
       style="fill:none;fill-rule:evenodd;stroke:#000000;stroke-width:0.26499999;stroke-linecap:butt;stroke-linejoin:miter;stroke-miterlimit:4;stroke-dasharray:none;stroke-opacity:1;marker-end:url(#marker5821)"
       d="m 53.541445,162.1674 c 3.262161,0 3.36138,3.19288 3.36138,3.64151 l 3e-6,1.36559"
       id="path5817"
       inkscape:connector-curvature="0"
       sodipodi:nodetypes="ccc" />
    <text
       xml:space="preserve"
       style="font-style:normal;font-weight:normal;font-size:2.9765625px;line-height:125%;font-family:'Bitstream Vera Sans';letter-spacing:0px;word-spacing:0px;fill:#000000;fill-opacity:1;stroke:none;stroke-width:0.26458332px;stroke-linecap:butt;stroke-linejoin:miter;stroke-opacity:1"
       x="56.959896"
       y="164.31544"
       id="text5825"><tspan
         sodipodi:role="line"
         id="tspan5823"
         x="56.959896"
         y="164.31544"
         style="stroke-width:0.26458332px">has</tspan></text>
    <g
       transform="translate(55.913098,12.944255)"
       id="g6100">
      <rect
         style="fill:none;fill-opacity:1;stroke:#000000;stroke-width:0.26458332;stroke-linejoin:miter;stroke-miterlimit:4;stroke-dasharray:none;stroke-dashoffset:0;stroke-opacity:1"
         id="rect6090"
         width="17.411076"
         height="5.8729925"
         x="17.048941"
         y="167.46254"
         rx="0"
         ry="0" />
      <text
         xml:space="preserve"
         style="font-style:normal;font-weight:normal;font-size:4.13396168px;line-height:125%;font-family:'Bitstream Vera Sans';letter-spacing:0px;word-spacing:0px;fill:#000000;fill-opacity:1;stroke:none;stroke-width:0.26458332;stroke-linecap:butt;stroke-linejoin:miter;stroke-miterlimit:4;stroke-dasharray:none;stroke-opacity:1"
         x="17.415672"
         y="171.88834"
         id="text6094"
         transform="scale(0.99969569,1.0003044)"><tspan
           sodipodi:role="line"
           id="tspan6092"
           x="17.415672"
           y="171.88834"
           style="stroke-width:0.26458332;stroke-miterlimit:4;stroke-dasharray:none">Protocol</tspan></text>
    </g>
    <path
       sodipodi:nodetypes="ccc"
       inkscape:connector-curvature="0"
       id="path6118"
       d="m 77.969333,162.16718 c 2.221721,0 2.221718,3.1931 2.221718,3.64173 l 3e-6,1.36559"
       style="fill:none;fill-rule:evenodd;stroke:#000000;stroke-width:0.26499999;stroke-linecap:butt;stroke-linejoin:miter;stroke-miterlimit:4;stroke-dasharray:none;stroke-opacity:1;marker-end:url(#marker6122)" />
    <g
       id="g7506">
      <text
         transform="scale(0.99970829,1.0002918)"
         id="text4489-3-7-3"
         y="171.55405"
         x="72.399719"
         style="font-style:normal;font-weight:normal;font-size:4.13393021px;line-height:125%;font-family:'Bitstream Vera Sans';letter-spacing:0px;word-spacing:0px;fill:#000000;fill-opacity:1;stroke:none;stroke-width:0.26458332;stroke-linecap:butt;stroke-linejoin:miter;stroke-miterlimit:4;stroke-dasharray:none;stroke-opacity:1"
         xml:space="preserve"><tspan
           style="stroke-width:0.26458332;stroke-miterlimit:4;stroke-dasharray:none"
           y="171.55405"
           x="72.399719"
           id="tspan4487-6-5-5"
           sodipodi:role="line">Syntax</tspan></text>
      <rect
         style="fill:none;fill-opacity:1;stroke:#000000;stroke-width:0.26458332;stroke-linejoin:miter;stroke-miterlimit:4;stroke-dasharray:none;stroke-dashoffset:0;stroke-opacity:1"
         id="rect4569"
         width="14.748827"
         height="5.8728333"
         x="72.220306"
         y="167.56323"
         rx="0"
         ry="0" />
    </g>
  </g>
</svg>
