<?xml version="1.0" encoding="UTF-8" standalone="no"?>
<!-- Created with Inkscape (http://www.inkscape.org/) -->

<svg
   xmlns:dc="http://purl.org/dc/elements/1.1/"
   xmlns:cc="http://creativecommons.org/ns#"
   xmlns:rdf="http://www.w3.org/1999/02/22-rdf-syntax-ns#"
   xmlns:svg="http://www.w3.org/2000/svg"
   xmlns="http://www.w3.org/2000/svg"
   xmlns:sodipodi="http://sodipodi.sourceforge.net/DTD/sodipodi-0.dtd"
   xmlns:inkscape="http://www.inkscape.org/namespaces/inkscape"
   width="107.48801mm"
   height="36.777077mm"
   viewBox="0 0 107.48802 36.777079"
   version="1.1"
   id="svg1343"
   inkscape:version="0.92.2 5c3e80d, 2017-08-06"
   sodipodi:docname="rdf-uml.svg">
  <defs
     id="defs1337">
    <marker
       inkscape:stockid="EmptyDiamondLstart"
       orient="auto"
       refY="0"
       refX="0"
       id="marker4294"
       style="overflow:visible"
       inkscape:isstock="true">
      <path
         inkscape:connector-curvature="0"
         id="path4292"
         d="M 0,-7.0710768 -7.0710894,0 0,7.0710589 7.0710462,0 Z"
         style="fill:#ffffff;fill-rule:evenodd;stroke:#000000;stroke-width:1.00000003pt;stroke-opacity:1"
         transform="matrix(0.8,0,0,0.8,5.6,0)" />
    </marker>
    <marker
       inkscape:isstock="true"
       style="overflow:visible"
       id="marker2908"
       refX="0"
       refY="0"
       orient="auto"
       inkscape:stockid="EmptyDiamondLstart"
       inkscape:collect="always">
      <path
         transform="matrix(0.8,0,0,0.8,5.6,0)"
         style="fill:#ffffff;fill-rule:evenodd;stroke:#000000;stroke-width:1.00000003pt;stroke-opacity:1"
         d="M 0,-7.0710768 -7.0710894,0 0,7.0710589 7.0710462,0 Z"
         id="path2906"
         inkscape:connector-curvature="0" />
    </marker>
    <marker
       inkscape:stockid="EmptyDiamondLstart"
       orient="auto"
       refY="0"
       refX="0"
       id="marker2858"
       style="overflow:visible"
       inkscape:isstock="true"
       inkscape:collect="always">
      <path
         inkscape:connector-curvature="0"
         id="path2856"
         d="M 0,-7.0710768 -7.0710894,0 0,7.0710589 7.0710462,0 Z"
         style="fill:#ffffff;fill-rule:evenodd;stroke:#000000;stroke-width:1.00000003pt;stroke-opacity:1"
         transform="matrix(0.8,0,0,0.8,5.6,0)" />
    </marker>
    <marker
       inkscape:stockid="EmptyTriangleOutL"
       orient="auto"
       refY="0"
       refX="0"
       id="marker1577"
       style="overflow:visible"
       inkscape:isstock="true">
      <path
         id="path1575"
         d="M 5.77,0 -2.88,5 V -5 Z"
         style="fill:#ffffff;fill-rule:evenodd;stroke:#000000;stroke-width:1.00000003pt;stroke-opacity:1"
         transform="matrix(0.8,0,0,0.8,-4.8,0)"
         inkscape:connector-curvature="0" />
    </marker>
    <marker
       inkscape:stockid="EmptyTriangleOutL"
       orient="auto"
       refY="0"
       refX="0"
       id="marker1481"
       style="overflow:visible"
       inkscape:isstock="true">
      <path
         id="path1479"
         d="M 5.77,0 -2.88,5 V -5 Z"
         style="fill:#ffffff;fill-rule:evenodd;stroke:#000000;stroke-width:1.00000003pt;stroke-opacity:1"
         transform="matrix(0.8,0,0,0.8,-4.8,0)"
         inkscape:connector-curvature="0" />
    </marker>
    <marker
       inkscape:stockid="EmptyDiamondLstart"
       orient="auto"
       refY="0"
       refX="0"
       id="marker1421"
       style="overflow:visible"
       inkscape:isstock="true">
      <path
         id="path1419"
         d="M 0,-7.0710768 -7.0710894,0 0,7.0710589 7.0710462,0 Z"
         style="fill:#ffffff;fill-rule:evenodd;stroke:#000000;stroke-width:1.00000003pt;stroke-opacity:1"
         transform="matrix(0.8,0,0,0.8,5.6,0)"
         inkscape:connector-curvature="0" />
    </marker>
    <marker
       inkscape:isstock="true"
       style="overflow:visible"
       id="marker1415"
       refX="0"
       refY="0"
       orient="auto"
       inkscape:stockid="EmptyDiamondLstart"
       inkscape:collect="always">
      <path
         transform="matrix(0.8,0,0,0.8,5.6,0)"
         style="fill:#ffffff;fill-rule:evenodd;stroke:#000000;stroke-width:1.00000003pt;stroke-opacity:1"
         d="M 0,-7.0710768 -7.0710894,0 0,7.0710589 7.0710462,0 Z"
         id="path1413"
         inkscape:connector-curvature="0" />
    </marker>
    <marker
       inkscape:stockid="EmptyTriangleOutL"
       orient="auto"
       refY="0"
       refX="0"
       id="marker1403"
       style="overflow:visible"
       inkscape:isstock="true">
      <path
         id="path1401"
         d="M 5.77,0 -2.88,5 V -5 Z"
         style="fill:#ffffff;fill-rule:evenodd;stroke:#000000;stroke-width:1.00000003pt;stroke-opacity:1"
         transform="matrix(0.8,0,0,0.8,-4.8,0)"
         inkscape:connector-curvature="0" />
    </marker>
    <marker
       inkscape:isstock="true"
       style="overflow:visible"
       id="marker1367"
       refX="0"
       refY="0"
       orient="auto"
       inkscape:stockid="EmptyTriangleOutL"
       inkscape:collect="always">
      <path
         inkscape:connector-curvature="0"
         transform="matrix(0.8,0,0,0.8,-4.8,0)"
         style="fill:#ffffff;fill-rule:evenodd;stroke:#000000;stroke-width:1.00000003pt;stroke-opacity:1"
         d="M 5.77,0 -2.88,5 V -5 Z"
         id="path1365" />
    </marker>
    <marker
       inkscape:stockid="EmptyDiamondLstart"
       orient="auto"
       refY="0"
       refX="0"
       id="EmptyDiamondLstart"
       style="overflow:visible"
       inkscape:isstock="true"
       inkscape:collect="always">
      <path
         id="path1196"
         d="M 0,-7.0710768 -7.0710894,0 0,7.0710589 7.0710462,0 Z"
         style="fill:#ffffff;fill-rule:evenodd;stroke:#000000;stroke-width:1.00000003pt;stroke-opacity:1"
         transform="matrix(0.8,0,0,0.8,5.6,0)"
         inkscape:connector-curvature="0" />
    </marker>
    <marker
       inkscape:stockid="EmptyDiamondMstart"
       orient="auto"
       refY="0"
       refX="0"
       id="EmptyDiamondMstart"
       style="overflow:visible"
       inkscape:isstock="true">
      <path
         id="path1199"
         d="M 0,-7.0710768 -7.0710894,0 0,7.0710589 7.0710462,0 Z"
         style="fill:#ffffff;fill-rule:evenodd;stroke:#000000;stroke-width:1.00000003pt;stroke-opacity:1"
         transform="matrix(0.4,0,0,0.4,2.6,0)"
         inkscape:connector-curvature="0" />
    </marker>
    <marker
       inkscape:isstock="true"
       style="overflow:visible"
       id="marker1079"
       refX="0"
       refY="0"
       orient="auto"
       inkscape:stockid="EmptyTriangleOutL">
      <path
         inkscape:connector-curvature="0"
         transform="matrix(0.8,0,0,0.8,-4.8,0)"
         style="fill:#ffffff;fill-rule:evenodd;stroke:#000000;stroke-width:1.00000003pt;stroke-opacity:1"
         d="M 5.77,0 -2.88,5 V -5 Z"
         id="path1077" />
    </marker>
    <marker
       inkscape:isstock="true"
       style="overflow:visible"
       id="marker3252"
       refX="0"
       refY="0"
       orient="auto"
       inkscape:stockid="EmptyTriangleOutL">
      <path
         inkscape:connector-curvature="0"
         transform="matrix(0.8,0,0,0.8,-4.8,0)"
         style="fill:#ffffff;fill-rule:evenodd;stroke:#000000;stroke-width:1.00000003pt;stroke-opacity:1"
         d="M 5.77,0 -2.88,5 V -5 Z"
         id="path3250" />
    </marker>
    <marker
       inkscape:stockid="EmptyTriangleOutL"
       orient="auto"
       refY="0"
       refX="0"
       id="marker2262"
       style="overflow:visible"
       inkscape:isstock="true">
      <path
         id="path2260"
         d="M 5.77,0 -2.88,5 V -5 Z"
         style="fill:#ffffff;fill-rule:evenodd;stroke:#000000;stroke-width:1.00000003pt;stroke-opacity:1"
         transform="matrix(0.8,0,0,0.8,-4.8,0)"
         inkscape:connector-curvature="0" />
    </marker>
    <marker
       inkscape:stockid="EmptyTriangleOutL"
       orient="auto"
       refY="0"
       refX="0"
       id="marker2148"
       style="overflow:visible"
       inkscape:isstock="true">
      <path
         id="path2146"
         d="M 5.77,0 -2.88,5 V -5 Z"
         style="fill:#ffffff;fill-rule:evenodd;stroke:#000000;stroke-width:1.00000003pt;stroke-opacity:1"
         transform="matrix(0.8,0,0,0.8,-4.8,0)"
         inkscape:connector-curvature="0" />
    </marker>
    <marker
       inkscape:stockid="EmptyTriangleOutL"
       orient="auto"
       refY="0"
       refX="0"
       id="marker7929"
       style="overflow:visible"
       inkscape:isstock="true">
      <path
         id="path7927"
         d="M 5.77,0 -2.88,5 V -5 Z"
         style="fill:#ffffff;fill-rule:evenodd;stroke:#000000;stroke-width:1.00000003pt;stroke-opacity:1"
         transform="matrix(0.8,0,0,0.8,-4.8,0)"
         inkscape:connector-curvature="0" />
    </marker>
    <marker
       inkscape:isstock="true"
       style="overflow:visible"
       id="marker6386"
       refX="0"
       refY="0"
       orient="auto"
       inkscape:stockid="EmptyTriangleOutL">
      <path
         transform="matrix(0.8,0,0,0.8,-4.8,0)"
         style="fill:#ffffff;fill-rule:evenodd;stroke:#000000;stroke-width:1.00000003pt;stroke-opacity:1"
         d="M 5.77,0 -2.88,5 V -5 Z"
         id="path6384"
         inkscape:connector-curvature="0" />
    </marker>
    <marker
       inkscape:isstock="true"
       style="overflow:visible"
       id="marker1101"
       refX="0"
       refY="0"
       orient="auto"
       inkscape:stockid="Arrow2Send">
      <path
         transform="matrix(-0.3,0,0,-0.3,0.69,0)"
         d="M 8.7185878,4.0337352 -2.2072895,0.01601326 8.7185884,-4.0017078 c -1.7454984,2.3720609 -1.7354408,5.6174519 -6e-7,8.035443 z"
         style="fill:#2e3436;fill-opacity:1;fill-rule:evenodd;stroke:#2e3436;stroke-width:0.625;stroke-linejoin:round;stroke-opacity:1"
         id="path1099"
         inkscape:connector-curvature="0" />
    </marker>
    <marker
       inkscape:stockid="Arrow2Send"
       orient="auto"
       refY="0"
       refX="0"
       id="marker1063"
       style="overflow:visible"
       inkscape:isstock="true">
      <path
         inkscape:connector-curvature="0"
         id="path1061"
         style="fill:#2e3436;fill-opacity:1;fill-rule:evenodd;stroke:#2e3436;stroke-width:0.625;stroke-linejoin:round;stroke-opacity:1"
         d="M 8.7185878,4.0337352 -2.2072895,0.01601326 8.7185884,-4.0017078 c -1.7454984,2.3720609 -1.7354408,5.6174519 -6e-7,8.035443 z"
         transform="matrix(-0.3,0,0,-0.3,0.69,0)" />
    </marker>
    <marker
       inkscape:isstock="true"
       style="overflow:visible"
       id="marker16846"
       refX="0"
       refY="0"
       orient="auto"
       inkscape:stockid="Arrow2Send">
      <path
         transform="matrix(-0.3,0,0,-0.3,0.69,0)"
         d="M 8.7185878,4.0337352 -2.2072895,0.01601326 8.7185884,-4.0017078 c -1.7454984,2.3720609 -1.7354408,5.6174519 -6e-7,8.035443 z"
         style="fill:#2e3436;fill-opacity:1;fill-rule:evenodd;stroke:#2e3436;stroke-width:0.625;stroke-linejoin:round;stroke-opacity:1"
         id="path16844"
         inkscape:connector-curvature="0" />
    </marker>
    <marker
       inkscape:stockid="Arrow2Send"
       orient="auto"
       refY="0"
       refX="0"
       id="marker11095"
       style="overflow:visible"
       inkscape:isstock="true">
      <path
         id="path11093"
         style="fill:#2e3436;fill-opacity:1;fill-rule:evenodd;stroke:#2e3436;stroke-width:0.625;stroke-linejoin:round;stroke-opacity:1"
         d="M 8.7185878,4.0337352 -2.2072895,0.01601326 8.7185884,-4.0017078 c -1.7454984,2.3720609 -1.7354408,5.6174519 -6e-7,8.035443 z"
         transform="matrix(-0.3,0,0,-0.3,0.69,0)"
         inkscape:connector-curvature="0" />
    </marker>
    <marker
       inkscape:isstock="true"
       style="overflow:visible"
       id="marker11011"
       refX="0"
       refY="0"
       orient="auto"
       inkscape:stockid="Arrow2Send">
      <path
         transform="matrix(-0.3,0,0,-0.3,0.69,0)"
         d="M 8.7185878,4.0337352 -2.2072895,0.01601326 8.7185884,-4.0017078 c -1.7454984,2.3720609 -1.7354408,5.6174519 -6e-7,8.035443 z"
         style="fill:#2e3436;fill-opacity:1;fill-rule:evenodd;stroke:#2e3436;stroke-width:0.625;stroke-linejoin:round;stroke-opacity:1"
         id="path11009"
         inkscape:connector-curvature="0" />
    </marker>
    <marker
       inkscape:isstock="true"
       style="overflow:visible"
       id="marker7970"
       refX="0"
       refY="0"
       orient="auto"
       inkscape:stockid="Arrow2Send">
      <path
         transform="matrix(-0.3,0,0,-0.3,0.69,0)"
         d="M 8.7185878,4.0337352 -2.2072895,0.01601326 8.7185884,-4.0017078 c -1.7454984,2.3720609 -1.7354408,5.6174519 -6e-7,8.035443 z"
         style="fill:#2e3436;fill-opacity:1;fill-rule:evenodd;stroke:#2e3436;stroke-width:0.625;stroke-linejoin:round;stroke-opacity:1"
         id="path7968"
         inkscape:connector-curvature="0" />
    </marker>
    <marker
       inkscape:stockid="Arrow2Sstart"
       orient="auto"
       refY="0"
       refX="0"
       id="Arrow2Sstart"
       style="overflow:visible"
       inkscape:isstock="true">
      <path
         id="path2336"
         style="fill:#000000;fill-opacity:1;fill-rule:evenodd;stroke:#000000;stroke-width:0.625;stroke-linejoin:round;stroke-opacity:1"
         d="M 8.7185878,4.0337352 -2.2072895,0.01601326 8.7185884,-4.0017078 c -1.7454984,2.3720609 -1.7354408,5.6174519 -6e-7,8.035443 z"
         transform="matrix(0.3,0,0,0.3,-0.69,0)"
         inkscape:connector-curvature="0" />
    </marker>
    <marker
       inkscape:stockid="Arrow1Sstart"
       orient="auto"
       refY="0"
       refX="0"
       id="Arrow1Sstart"
       style="overflow:visible"
       inkscape:isstock="true">
      <path
         id="path2318"
         d="M 0,0 5,-5 -12.5,0 5,5 Z"
         style="fill:#000000;fill-opacity:1;fill-rule:evenodd;stroke:#000000;stroke-width:1.00000003pt;stroke-opacity:1"
         transform="matrix(0.2,0,0,0.2,1.2,0)"
         inkscape:connector-curvature="0" />
    </marker>
  </defs>
  <sodipodi:namedview
     id="base"
     pagecolor="#ffffff"
     bordercolor="#666666"
     borderopacity="1.0"
     inkscape:pageopacity="0.0"
     inkscape:pageshadow="2"
     inkscape:zoom="5.6568542"
     inkscape:cx="75.870893"
     inkscape:cy="63.502378"
     inkscape:document-units="mm"
     inkscape:current-layer="layer1"
     showgrid="false"
     inkscape:snap-center="false"
     inkscape:window-width="1916"
     inkscape:window-height="1041"
     inkscape:window-x="0"
     inkscape:window-y="37"
     inkscape:window-maximized="0"
     inkscape:snap-bbox="true"
     inkscape:snap-bbox-edge-midpoints="true"
     showguides="true"
     inkscape:guide-bbox="true"
     inkscape:snap-text-baseline="true"
     fit-margin-top="-0.1"
     fit-margin-left="0"
     fit-margin-right="0"
     fit-margin-bottom="0"
     inkscape:snap-object-midpoints="false"
     inkscape:snap-global="true"
     inkscape:snap-nodes="true"
     inkscape:snap-bbox-midpoints="true">
    <sodipodi:guide
       position="28.975838,18.950975"
       orientation="1,0"
       id="guide4296"
       inkscape:locked="false" />
    <sodipodi:guide
       position="18.110726,28.449898"
       orientation="0,1"
       id="guide4298"
       inkscape:locked="false" />
    <sodipodi:guide
       position="28.975838,20.548177"
       orientation="0,1"
       id="guide4304"
       inkscape:locked="false" />
    <sodipodi:guide
       position="18.243337,14.834907"
       orientation="0,1"
       id="guide4310"
       inkscape:locked="false" />
    <sodipodi:guide
       position="39.475715,23.760263"
       orientation="1,0"
       id="guide4312"
       inkscape:locked="false" />
  </sodipodi:namedview>
  <metadata
     id="metadata1340">
    <rdf:RDF>
      <cc:Work
         rdf:about="">
        <dc:format>image/svg+xml</dc:format>
        <dc:type
           rdf:resource="http://purl.org/dc/dcmitype/StillImage" />
        <dc:title></dc:title>
      </cc:Work>
    </rdf:RDF>
  </metadata>
  <g
     inkscape:label="Layer 1"
     inkscape:groupmode="layer"
     id="layer1"
     transform="translate(0.67088014,-256.1772)">
    <g
       transform="translate(23.747345,47.522496)"
       id="g1025">
      <text
         id="text1021"
         y="212.17313"
         x="60.131859"
         style="font-style:oblique;font-weight:normal;font-size:2.9765625px;line-height:94.99999881%;font-family:'Bitstream Vera Sans';text-align:center;letter-spacing:0px;word-spacing:0px;text-anchor:middle;fill:#000000;fill-opacity:1;stroke:none;stroke-width:0.26458332px;stroke-linecap:butt;stroke-linejoin:miter;stroke-opacity:1;-inkscape-font-specification:'Bitstream Vera Sans Oblique';font-stretch:normal;font-variant:normal;"
         xml:space="preserve"><tspan
           id="tspan1019"
           style="line-height:94.99999881%;text-align:center;text-anchor:middle;fill:#000000;fill-opacity:1;stroke-width:0.26458332px;-inkscape-font-specification:'Bitstream Vera Sans Oblique';font-family:'Bitstream Vera Sans';font-weight:normal;font-style:oblique;font-stretch:normal;font-variant:normal;"
           y="212.17313"
           x="60.131859"
           sodipodi:role="line">Term</tspan></text>
      <rect
         style="fill:none;fill-opacity:1;stroke:#000000;stroke-width:0.26499999;stroke-linejoin:miter;stroke-miterlimit:4;stroke-dasharray:none;stroke-dashoffset:0;stroke-opacity:1"
         id="rect1023"
         width="11.628847"
         height="3.9486394"
         x="54.336327"
         y="209.08914"
         rx="0"
         ry="0" />
    </g>
    <g
       id="g1433"
       transform="translate(5.802273,-16.655042)">
      <text
         xml:space="preserve"
         style="font-style:normal;font-weight:normal;font-size:2.9765625px;line-height:94.99999881%;font-family:'Bitstream Vera Sans';text-align:center;letter-spacing:0px;word-spacing:0px;text-anchor:middle;fill:#000000;fill-opacity:1;stroke:none;stroke-width:0.26458332px;stroke-linecap:butt;stroke-linejoin:miter;stroke-opacity:1"
         x="44.058422"
         y="286.84933"
         id="text1069"><tspan
           sodipodi:role="line"
           x="44.058422"
           y="286.84933"
           style="line-height:94.99999881%;text-align:center;text-anchor:middle;fill:#000000;fill-opacity:1;stroke-width:0.26458332px"
           id="tspan1067">Triple</tspan></text>
      <rect
         ry="0"
         rx="0"
         y="283.76535"
         x="39.585808"
         height="3.9486394"
         width="8.9830141"
         id="rect1071"
         style="fill:none;fill-opacity:1;stroke:#000000;stroke-width:0.26499999;stroke-linejoin:miter;stroke-miterlimit:4;stroke-dasharray:none;stroke-dashoffset:0;stroke-opacity:1" />
    </g>
    <path
       sodipodi:nodetypes="cc"
       inkscape:connector-curvature="0"
       id="path1075"
       d="M 54.322452,269.08463 H 67.29532"
       style="fill:none;fill-rule:evenodd;stroke:#000000;stroke-width:0.26499999;stroke-linecap:butt;stroke-linejoin:miter;stroke-miterlimit:4;stroke-dasharray:none;stroke-opacity:1;marker-end:url(#EmptyDiamondLstart)" />
    <path
       style="fill:none;fill-rule:evenodd;stroke:#000000;stroke-width:0.26499999;stroke-linecap:butt;stroke-linejoin:miter;stroke-miterlimit:4;stroke-dasharray:none;stroke-opacity:1;marker-end:url(#marker1481)"
       d="M 83.879204,267.12381 V 260.9"
       id="path1477"
       inkscape:connector-curvature="0"
       sodipodi:nodetypes="cc" />
    <g
       transform="translate(23.728456,58.021168)"
       id="g1353">
      <text
         id="text1349"
         y="212.17313"
         x="60.143482"
         style="font-style:oblique;font-weight:normal;font-size:2.9765625px;line-height:94.99999881%;font-family:'Bitstream Vera Sans';text-align:center;letter-spacing:0px;word-spacing:0px;text-anchor:middle;fill:#000000;fill-opacity:1;stroke:none;stroke-width:0.26458332px;stroke-linecap:butt;stroke-linejoin:miter;stroke-opacity:1;-inkscape-font-specification:'Bitstream Vera Sans Oblique';font-stretch:normal;font-variant:normal;"
         xml:space="preserve"><tspan
           id="tspan1347"
           style="line-height:94.99999881%;text-align:center;text-anchor:middle;fill:#000000;fill-opacity:1;stroke-width:0.26458332px;-inkscape-font-specification:'Bitstream Vera Sans Oblique';font-family:'Bitstream Vera Sans';font-weight:normal;font-style:oblique;font-stretch:normal;font-variant:normal;"
           y="212.17313"
           x="60.143482"
           sodipodi:role="line">IRI_or_BlankNode</tspan></text>
      <rect
         style="fill:none;fill-opacity:1;stroke:#000000;stroke-width:0.26499999;stroke-linejoin:miter;stroke-miterlimit:4;stroke-dasharray:none;stroke-dashoffset:0;stroke-opacity:1"
         id="rect1351"
         width="26.540413"
         height="3.9486394"
         x="46.880535"
         y="209.08914"
         rx="0"
         ry="0" />
    </g>
    <path
       sodipodi:nodetypes="cccc"
       inkscape:connector-curvature="0"
       id="path1363"
       d="m 63.708976,280.95866 v -4.4268 h 20.170228 v -5.10712"
       style="fill:none;fill-rule:evenodd;stroke:#000000;stroke-width:0.26458332px;stroke-linecap:butt;stroke-linejoin:miter;stroke-opacity:1;marker-end:url(#marker1367)" />
    <path
       sodipodi:nodetypes="cc"
       inkscape:connector-curvature="0"
       id="path1409"
       d="m 76.217833,280.91316 v -4.27588"
       style="fill:none;fill-rule:evenodd;stroke:#000000;stroke-width:0.26458332px;stroke-linecap:butt;stroke-linejoin:miter;stroke-opacity:1" />
    <path
       style="fill:none;fill-rule:evenodd;stroke:#000000;stroke-width:0.26499999;stroke-linecap:butt;stroke-linejoin:miter;stroke-miterlimit:4;stroke-dasharray:none;stroke-opacity:1;marker-end:url(#marker1415)"
       d="m 47.030489,271.09726 v 11.85231 h 10.742517"
       id="path1411"
       inkscape:connector-curvature="0"
       sodipodi:nodetypes="ccc" />
    <path
       sodipodi:nodetypes="ccc"
       inkscape:connector-curvature="0"
       id="path1417"
       d="m 52.074109,267.0606 v -8.47465 h 22.694553"
       style="fill:none;fill-rule:evenodd;stroke:#000000;stroke-width:0.26499999;stroke-linecap:butt;stroke-linejoin:miter;stroke-miterlimit:4;stroke-dasharray:none;stroke-opacity:1;marker-end:url(#marker1421)" />
    <text
       xml:space="preserve"
       style="font-style:normal;font-weight:normal;font-size:2.23242188px;line-height:94.99999881%;font-family:'Bitstream Vera Sans';text-align:center;letter-spacing:0px;word-spacing:0px;text-anchor:middle;fill:#000000;fill-opacity:1;stroke:none;stroke-width:0.26458332px;stroke-linecap:butt;stroke-linejoin:miter;stroke-opacity:1"
       x="71.382965"
       y="257.77332"
       id="text1441"><tspan
         sodipodi:role="line"
         x="71.382965"
         y="257.77332"
         style="line-height:94.99999881%;text-align:center;text-anchor:middle;fill:#000000;fill-opacity:1;stroke-width:0.26458332px"
         id="tspan1439">object</tspan></text>
    <text
       id="text1487"
       y="268.27151"
       x="63.30138"
       style="font-style:normal;font-weight:normal;font-size:2.23242188px;line-height:94.99999881%;font-family:'Bitstream Vera Sans';text-align:center;letter-spacing:0px;word-spacing:0px;text-anchor:middle;fill:#000000;fill-opacity:1;stroke:none;stroke-width:0.26458332px;stroke-linecap:butt;stroke-linejoin:miter;stroke-opacity:1"
       xml:space="preserve"><tspan
         id="tspan1485"
         style="line-height:94.99999881%;text-align:center;text-anchor:middle;fill:#000000;fill-opacity:1;stroke-width:0.26458332px"
         y="268.27151"
         x="63.30138"
         sodipodi:role="line">subject</tspan></text>
    <text
       xml:space="preserve"
       style="font-style:normal;font-weight:normal;font-size:2.23242188px;line-height:94.99999881%;font-family:'Bitstream Vera Sans';text-align:center;letter-spacing:0px;word-spacing:0px;text-anchor:middle;fill:#000000;fill-opacity:1;stroke:none;stroke-width:0.26458332px;stroke-linecap:butt;stroke-linejoin:miter;stroke-opacity:1"
       x="52.513256"
       y="282.13635"
       id="text1495"><tspan
         sodipodi:role="line"
         x="52.513256"
         y="282.13635"
         style="line-height:94.99999881%;text-align:center;text-anchor:middle;fill:#000000;fill-opacity:1;stroke-width:0.26458332px"
         id="tspan1493">predicate</tspan></text>
    <text
       id="text1537"
       y="260.5582"
       x="74.26506"
       style="font-style:normal;font-weight:normal;font-size:2.23242188px;line-height:94.99999881%;font-family:'Bitstream Vera Sans';text-align:center;letter-spacing:0px;word-spacing:0px;text-anchor:middle;fill:#000000;fill-opacity:1;stroke:none;stroke-width:0.26458332px;stroke-linecap:butt;stroke-linejoin:miter;stroke-opacity:1"
       xml:space="preserve"><tspan
         id="tspan1535"
         style="line-height:94.99999881%;text-align:center;text-anchor:middle;fill:#000000;fill-opacity:1;stroke-width:0.26458332px"
         y="260.5582"
         x="74.26506"
         sodipodi:role="line">1</tspan></text>
    <text
       xml:space="preserve"
       style="font-style:normal;font-weight:normal;font-size:2.23242188px;line-height:94.99999881%;font-family:'Bitstream Vera Sans';text-align:center;letter-spacing:0px;word-spacing:0px;text-anchor:middle;fill:#000000;fill-opacity:1;stroke:none;stroke-width:0.26458332px;stroke-linecap:butt;stroke-linejoin:miter;stroke-opacity:1"
       x="66.791718"
       y="271.05685"
       id="text1547"><tspan
         sodipodi:role="line"
         x="66.791718"
         y="271.05685"
         style="line-height:94.99999881%;text-align:center;text-anchor:middle;fill:#000000;fill-opacity:1;stroke-width:0.26458332px"
         id="tspan1545">1</tspan></text>
    <text
       id="text1553"
       y="284.92181"
       x="57.269409"
       style="font-style:normal;font-weight:normal;font-size:2.23242188px;line-height:94.99999881%;font-family:'Bitstream Vera Sans';text-align:center;letter-spacing:0px;word-spacing:0px;text-anchor:middle;fill:#000000;fill-opacity:1;stroke:none;stroke-width:0.26458332px;stroke-linecap:butt;stroke-linejoin:miter;stroke-opacity:1"
       xml:space="preserve"><tspan
         id="tspan1551"
         style="line-height:94.99999881%;text-align:center;text-anchor:middle;fill:#000000;fill-opacity:1;stroke-width:0.26458332px"
         y="284.92181"
         x="57.269409"
         sodipodi:role="line">1</tspan></text>
    <text
       xml:space="preserve"
       style="font-style:normal;font-weight:normal;font-size:2.23242188px;line-height:94.99999881%;font-family:'Bitstream Vera Sans';text-align:center;letter-spacing:0px;word-spacing:0px;text-anchor:middle;fill:#000000;fill-opacity:1;stroke:none;stroke-width:0.26458332px;stroke-linecap:butt;stroke-linejoin:miter;stroke-opacity:1"
       x="52.851288"
       y="267.39865"
       id="text1557"><tspan
         sodipodi:role="line"
         x="52.851288"
         y="267.39865"
         style="line-height:94.99999881%;text-align:center;text-anchor:middle;fill:#000000;fill-opacity:1;stroke-width:0.26458332px"
         id="tspan1555">*</tspan></text>
    <text
       id="text1561"
       y="271.08627"
       x="55.28344"
       style="font-style:normal;font-weight:normal;font-size:2.23242188px;line-height:94.99999881%;font-family:'Bitstream Vera Sans';text-align:center;letter-spacing:0px;word-spacing:0px;text-anchor:middle;fill:#000000;fill-opacity:1;stroke:none;stroke-width:0.26458332px;stroke-linecap:butt;stroke-linejoin:miter;stroke-opacity:1"
       xml:space="preserve"><tspan
         id="tspan1559"
         style="line-height:94.99999881%;text-align:center;text-anchor:middle;fill:#000000;fill-opacity:1;stroke-width:0.26458332px"
         y="271.08627"
         x="55.28344"
         sodipodi:role="line">*</tspan></text>
    <text
       xml:space="preserve"
       style="font-style:normal;font-weight:normal;font-size:2.23242188px;line-height:94.99999881%;font-family:'Bitstream Vera Sans';text-align:center;letter-spacing:0px;word-spacing:0px;text-anchor:middle;fill:#000000;fill-opacity:1;stroke:none;stroke-width:0.26458332px;stroke-linecap:butt;stroke-linejoin:miter;stroke-opacity:1"
       x="46.25436"
       y="273.02972"
       id="text1567"><tspan
         sodipodi:role="line"
         x="46.25436"
         y="273.02972"
         style="line-height:94.99999881%;text-align:center;text-anchor:middle;fill:#000000;fill-opacity:1;stroke-width:0.26458332px"
         id="tspan1565">*</tspan></text>
    <text
       id="text1571"
       y="275.71378"
       x="78.255821"
       style="font-style:normal;font-weight:normal;font-size:2.23242188px;line-height:94.99999881%;font-family:'Bitstream Vera Sans';text-align:center;letter-spacing:0px;word-spacing:0px;text-anchor:middle;fill:#000000;fill-opacity:1;stroke:none;stroke-width:0.26458332px;stroke-linecap:butt;stroke-linejoin:miter;stroke-opacity:1"
       xml:space="preserve"
       inkscape:transform-center-x="5.8768217"><tspan
         id="tspan1569"
         style="line-height:94.99999881%;text-align:center;text-anchor:middle;fill:#000000;fill-opacity:1;stroke-width:0.26458332px"
         y="275.71378"
         x="78.255821"
         sodipodi:role="line">{disjoint}</tspan></text>
    <path
       style="fill:none;fill-rule:evenodd;stroke:#000000;stroke-width:0.26458332px;stroke-linecap:butt;stroke-linejoin:miter;stroke-opacity:1"
       d="M 98.61881,280.95866 V 265.74179 H 83.879204"
       id="path1573"
       inkscape:connector-curvature="0"
       sodipodi:nodetypes="ccc" />
    <text
       inkscape:transform-center-x="5.8768217"
       xml:space="preserve"
       style="font-style:normal;font-weight:normal;font-size:2.23242188px;line-height:94.99999881%;font-family:'Bitstream Vera Sans';text-align:center;letter-spacing:0px;word-spacing:0px;text-anchor:middle;fill:#000000;fill-opacity:1;stroke:none;stroke-width:0.26458332px;stroke-linecap:butt;stroke-linejoin:miter;stroke-opacity:1"
       x="89.388649"
       y="264.96375"
       id="text1583"><tspan
         sodipodi:role="line"
         x="89.388649"
         y="264.96375"
         style="line-height:94.99999881%;text-align:center;text-anchor:middle;fill:#000000;fill-opacity:1;stroke-width:0.26458332px"
         id="tspan1581">{disjoint}</tspan></text>
    <path
       sodipodi:nodetypes="cccc"
       inkscape:connector-curvature="0"
       id="path2842"
       d="m 35.735299,278.11937 3.069531,0 0,-9.03474 h 3.268294"
       style="fill:none;fill-rule:evenodd;stroke:#000000;stroke-width:0.26499999;stroke-linecap:butt;stroke-linejoin:miter;stroke-miterlimit:4;stroke-dasharray:none;stroke-opacity:1;marker-end:url(#marker2858)" />
    <text
       xml:space="preserve"
       style="font-style:normal;font-weight:normal;font-size:2.23242188px;line-height:94.99999881%;font-family:'Bitstream Vera Sans';text-align:center;letter-spacing:0px;word-spacing:0px;text-anchor:middle;fill:#000000;fill-opacity:1;stroke:none;stroke-width:0.26458332px;stroke-linecap:butt;stroke-linejoin:miter;stroke-opacity:1"
       x="41.569519"
       y="271.05688"
       id="text2850"><tspan
         sodipodi:role="line"
         x="41.569519"
         y="271.05688"
         style="line-height:94.99999881%;text-align:center;text-anchor:middle;fill:#000000;fill-opacity:1;stroke-width:0.26458332px"
         id="tspan2848">*</tspan></text>
    <text
       id="text2854"
       y="280.0672"
       x="36.576374"
       style="font-style:normal;font-weight:normal;font-size:2.23242188px;line-height:94.99999881%;font-family:'Bitstream Vera Sans';text-align:center;letter-spacing:0px;word-spacing:0px;text-anchor:middle;fill:#000000;fill-opacity:1;stroke:none;stroke-width:0.26458332px;stroke-linecap:butt;stroke-linejoin:miter;stroke-opacity:1"
       xml:space="preserve"><tspan
         id="tspan2852"
         style="line-height:94.99999881%;text-align:center;text-anchor:middle;fill:#000000;fill-opacity:1;stroke-width:0.26458332px"
         y="280.0672"
         x="36.576374"
         sodipodi:role="line">1</tspan></text>
    <path
       style="fill:none;fill-rule:evenodd;stroke:#000000;stroke-width:0.26499999;stroke-linecap:butt;stroke-linejoin:miter;stroke-miterlimit:4;stroke-dasharray:none;stroke-opacity:1;marker-end:url(#marker2908)"
       d="m 2.3056826,266.42577 -2e-7,11.6936 H 17.572455"
       id="path2888"
       inkscape:connector-curvature="0"
       sodipodi:nodetypes="ccc" />
    <text
       xml:space="preserve"
       style="font-style:normal;font-weight:normal;font-size:2.23242188px;line-height:94.99999881%;font-family:'Bitstream Vera Sans';text-align:center;letter-spacing:0px;word-spacing:0px;text-anchor:middle;fill:#000000;fill-opacity:1;stroke:none;stroke-width:0.26458332px;stroke-linecap:butt;stroke-linejoin:miter;stroke-opacity:1"
       x="1.4250038"
       y="268.49838"
       id="text2896"><tspan
         sodipodi:role="line"
         x="1.4250038"
         y="268.49838"
         style="line-height:94.99999881%;text-align:center;text-anchor:middle;fill:#000000;fill-opacity:1;stroke-width:0.26458332px"
         id="tspan2894">1</tspan></text>
    <g
       id="g2904"
       transform="translate(-38.503613,-21.235288)">
      <text
         xml:space="preserve"
         style="font-style:normal;font-weight:normal;font-size:2.9765625px;line-height:94.99999881%;font-family:'Bitstream Vera Sans';text-align:center;letter-spacing:0px;word-spacing:0px;text-anchor:middle;fill:#000000;fill-opacity:1;stroke:none;stroke-width:0.26458332px;stroke-linecap:butt;stroke-linejoin:miter;stroke-opacity:1"
         x="44.058422"
         y="286.84933"
         id="text2900"><tspan
           sodipodi:role="line"
           x="44.058422"
           y="286.84933"
           style="line-height:94.99999881%;text-align:center;text-anchor:middle;fill:#000000;fill-opacity:1;stroke-width:0.26458332px"
           id="tspan2898">Dataset</tspan></text>
      <rect
         ry="0"
         rx="0"
         y="283.76535"
         x="37.965237"
         height="3.9486394"
         width="12.224159"
         id="rect2902"
         style="fill:none;fill-opacity:1;stroke:#000000;stroke-width:0.26499999;stroke-linejoin:miter;stroke-miterlimit:4;stroke-dasharray:none;stroke-dashoffset:0;stroke-opacity:1" />
    </g>
    <g
       id="g4088"
       transform="translate(-2.3462641,7.5348913)">
      <g
         style="stroke-width:0.60892558"
         transform="matrix(1.5448182,0,0,1.745799,20.497946,-237.73785)"
         id="g4027">
        <g
           style="stroke-width:0.60892558"
           transform="translate(-37.513008,11.408258)"
           id="g4011">
          <path
             style="fill:none;fill-opacity:1;stroke:#000000;stroke-width:0.16136526;stroke-linejoin:miter;stroke-miterlimit:4;stroke-dasharray:none;stroke-dashoffset:0;stroke-opacity:1"
             d="m 38.147137,283.76535 10.863067,2.4e-4 -1e-6,0.95229 0.997291,3e-5 v 2.99608 H 38.147137 Z"
             id="rect4009"
             inkscape:connector-curvature="0"
             sodipodi:nodetypes="ccccccc" />
        </g>
        <path
           style="fill:none;fill-rule:evenodd;stroke:#000000;stroke-width:0.16111153px;stroke-linecap:butt;stroke-linejoin:miter;stroke-opacity:1"
           d="m 11.53957,295.13664 0.99627,0.95197"
           id="path4018"
           inkscape:connector-curvature="0"
           sodipodi:nodetypes="cc" />
      </g>
      <text
         xml:space="preserve"
         style="font-style:normal;font-weight:normal;font-size:2.23242188px;line-height:94.99999881%;font-family:'Bitstream Vera Sans';text-align:center;letter-spacing:0px;word-spacing:0px;text-anchor:middle;fill:#000000;fill-opacity:1;stroke:none;stroke-width:0.26458332px;stroke-linecap:butt;stroke-linejoin:miter;stroke-opacity:1"
         x="30.212793"
         y="279.7341"
         id="text4031"><tspan
           id="tspan4068"
           sodipodi:role="line"
           x="30.56815"
           y="279.7341"
           style="line-height:94.99999881%;text-align:center;text-anchor:middle;fill:#000000;fill-opacity:1;stroke-width:0.26458332px">Graph name is  </tspan><tspan
           id="tspan4074"
           sodipodi:role="line"
           x="30.56815"
           y="281.85489"
           style="line-height:94.99999881%;text-align:center;text-anchor:middle;fill:#000000;fill-opacity:1;stroke-width:0.26458332px">unique in the </tspan><tspan
           id="tspan4078"
           sodipodi:role="line"
           x="30.212793"
           y="283.97571"
           style="line-height:94.99999881%;text-align:center;text-anchor:middle;fill:#000000;fill-opacity:1;stroke-width:0.26458332px">Dataset</tspan></text>
    </g>
    <rect
       ry="0"
       rx="0"
       y="275.72333"
       x="20.871115"
       height="8.0304832"
       width="14.867679"
       id="rect2868"
       style="fill:none;fill-opacity:1;stroke:#000000;stroke-width:0.26499999;stroke-linejoin:miter;stroke-miterlimit:4;stroke-dasharray:none;stroke-dashoffset:0;stroke-opacity:1" />
    <text
       id="text4045"
       y="282.84351"
       x="28.270277"
       style="font-style:normal;font-weight:normal;font-size:2.9765625px;line-height:94.99999881%;font-family:'Bitstream Vera Sans';text-align:center;letter-spacing:0px;word-spacing:0px;text-anchor:middle;fill:#000000;fill-opacity:1;stroke:none;stroke-width:0.26458332px;stroke-linecap:butt;stroke-linejoin:miter;stroke-opacity:1"
       xml:space="preserve"><tspan
         id="tspan4043"
         style="line-height:94.99999881%;text-align:center;text-anchor:middle;fill:#000000;fill-opacity:1;stroke-width:0.26458332px"
         y="282.84351"
         x="28.270277"
         sodipodi:role="line">name: IRI</tspan></text>
    <path
       style="fill:none;fill-rule:evenodd;stroke:#000000;stroke-width:0.26458332px;stroke-linecap:butt;stroke-linejoin:miter;stroke-opacity:1"
       d="M 20.908235,279.80516 H 35.748563"
       id="path4035"
       inkscape:connector-curvature="0"
       sodipodi:nodetypes="cc" />
    <text
       xml:space="preserve"
       style="font-style:normal;font-weight:normal;font-size:2.9765625px;line-height:94.99999881%;font-family:'Bitstream Vera Sans';text-align:center;letter-spacing:0px;word-spacing:0px;text-anchor:middle;fill:#000000;fill-opacity:1;stroke:none;stroke-width:0.26458332px;stroke-linecap:butt;stroke-linejoin:miter;stroke-opacity:1"
       x="28.302979"
       y="278.94055"
       id="text2866"><tspan
         sodipodi:role="line"
         x="28.302979"
         y="278.94055"
         style="font-style:normal;font-variant:normal;font-weight:bold;font-stretch:normal;line-height:94.99999881%;font-family:'Bitstream Vera Sans';-inkscape-font-specification:'Bitstream Vera Sans Bold';text-align:center;text-anchor:middle;fill:#000000;fill-opacity:1;stroke-width:0.26458332px"
         id="tspan2864">Graph</tspan></text>
    <rect
       style="opacity:1;fill:#729fcf;fill-opacity:1;stroke:#ce5c00;stroke-width:0.26499999;stroke-linejoin:miter;stroke-miterlimit:4;stroke-dasharray:none;stroke-dashoffset:0;stroke-opacity:1"
       id="rect4121"
       width="23.113575"
       height="3.9488502"
       x="141.2485"
       y="289.33722" />
    <rect
       y="299.43988"
       x="145.2245"
       height="3.9488525"
       width="20.68272"
       id="rect4130"
       style="opacity:1;fill:#729fcf;fill-opacity:1;stroke:#ce5c00;stroke-width:0.26499999;stroke-linejoin:miter;stroke-miterlimit:4;stroke-dasharray:none;stroke-dashoffset:0;stroke-opacity:1" />
    <rect
       y="314.93488"
       x="117.24508"
       height="0.93072224"
       width="17.081198"
       id="rect4132"
       style="opacity:1;fill:#729fcf;fill-opacity:1;stroke:#ce5c00;stroke-width:0.26499999;stroke-linejoin:miter;stroke-miterlimit:4;stroke-dasharray:none;stroke-dashoffset:0;stroke-opacity:1" />
    <g
       transform="translate(3.5771167,71.886105)"
       id="g1041">
      <text
         id="text1037"
         y="212.17313"
         x="60.131859"
         style="font-style:normal;font-weight:normal;font-size:2.9765625px;line-height:94.99999881%;font-family:'Bitstream Vera Sans';text-align:center;letter-spacing:0px;word-spacing:0px;text-anchor:middle;fill:#000000;fill-opacity:1;stroke:none;stroke-width:0.26458332px;stroke-linecap:butt;stroke-linejoin:miter;stroke-opacity:1"
         xml:space="preserve"><tspan
           id="tspan1035"
           style="line-height:94.99999881%;text-align:center;text-anchor:middle;fill:#000000;fill-opacity:1;stroke-width:0.26458332px"
           y="212.17313"
           x="60.131859"
           sodipodi:role="line">IRI</tspan></text>
      <rect
         style="fill:none;fill-opacity:1;stroke:#000000;stroke-width:0.26499999;stroke-linejoin:miter;stroke-miterlimit:4;stroke-dasharray:none;stroke-dashoffset:0;stroke-opacity:1"
         id="rect1039"
         width="5.2788472"
         height="3.9486394"
         x="57.511326"
         y="209.08914"
         rx="0"
         ry="0" />
    </g>
    <g
       id="g1065"
       transform="translate(16.067085,71.886105)">
      <text
         xml:space="preserve"
         style="font-style:normal;font-weight:normal;font-size:2.9765625px;line-height:94.99999881%;font-family:'Bitstream Vera Sans';text-align:center;letter-spacing:0px;word-spacing:0px;text-anchor:middle;fill:#000000;fill-opacity:1;stroke:none;stroke-width:0.26458332px;stroke-linecap:butt;stroke-linejoin:miter;stroke-opacity:1"
         x="60.131859"
         y="212.17313"
         id="text1061"><tspan
           sodipodi:role="line"
           x="60.131859"
           y="212.17313"
           style="line-height:94.99999881%;text-align:center;text-anchor:middle;fill:#000000;fill-opacity:1;stroke-width:0.26458332px"
           id="tspan1059">BlankNode</tspan></text>
      <rect
         ry="0"
         rx="0"
         y="209.08914"
         x="51.623539"
         height="3.9486394"
         width="17.054419"
         id="rect1063"
         style="fill:none;fill-opacity:1;stroke:#000000;stroke-width:0.26499999;stroke-linejoin:miter;stroke-miterlimit:4;stroke-dasharray:none;stroke-dashoffset:0;stroke-opacity:1" />
    </g>
    <g
       id="g4165"
       transform="translate(-32.844856,-17.669315)">
      <rect
         ry="0"
         rx="0"
         y="298.64456"
         x="118.84499"
         height="11.846529"
         width="20.6845"
         id="rect4105"
         style="fill:none;fill-opacity:1;stroke:#000000;stroke-width:0.26499999;stroke-linejoin:miter;stroke-miterlimit:4;stroke-dasharray:none;stroke-dashoffset:0;stroke-opacity:1" />
      <text
         id="text4109"
         y="305.63193"
         x="129.14856"
         style="font-style:normal;font-weight:normal;font-size:2.9765625px;line-height:94.99999881%;font-family:'Bitstream Vera Sans';text-align:center;letter-spacing:0px;word-spacing:0px;text-anchor:middle;fill:#000000;fill-opacity:1;stroke:none;stroke-width:0.26458332px;stroke-linecap:butt;stroke-linejoin:miter;stroke-opacity:1"
         xml:space="preserve"><tspan
           id="tspan4107"
           style="line-height:94.99999881%;text-align:center;text-anchor:middle;fill:#000000;fill-opacity:1;stroke-width:0.26458332px"
           y="305.63193"
           x="129.14856"
           sodipodi:role="line">lexical: string</tspan></text>
      <path
         style="fill:none;fill-rule:evenodd;stroke:#000000;stroke-width:0.26458332px;stroke-linecap:butt;stroke-linejoin:miter;stroke-opacity:1"
         d="m 118.84499,302.59359 h 20.66272"
         id="path4111"
         inkscape:connector-curvature="0"
         sodipodi:nodetypes="cc" />
      <text
         xml:space="preserve"
         style="font-style:normal;font-weight:normal;font-size:2.9765625px;line-height:94.99999881%;font-family:'Bitstream Vera Sans';text-align:center;letter-spacing:0px;word-spacing:0px;text-anchor:middle;fill:#000000;fill-opacity:1;stroke:none;stroke-width:0.26458332px;stroke-linecap:butt;stroke-linejoin:miter;stroke-opacity:1"
         x="129.17618"
         y="301.72885"
         id="text4115"><tspan
           sodipodi:role="line"
           x="129.17618"
           y="301.72885"
           style="font-style:normal;font-variant:normal;font-weight:bold;font-stretch:normal;line-height:94.99999881%;font-family:'Bitstream Vera Sans';-inkscape-font-specification:'Bitstream Vera Sans Bold';text-align:center;text-anchor:middle;fill:#000000;fill-opacity:1;stroke-width:0.26458332px"
           id="tspan4113">Literal</tspan></text>
      <text
         xml:space="preserve"
         style="font-style:normal;font-weight:normal;font-size:2.9765625px;line-height:94.99999881%;font-family:'Bitstream Vera Sans';text-align:center;letter-spacing:0px;word-spacing:0px;text-anchor:middle;fill:#000000;fill-opacity:1;stroke:none;stroke-width:0.26458332px;stroke-linecap:butt;stroke-linejoin:miter;stroke-opacity:1"
         x="128.83754"
         y="309.4353"
         id="text4142"><tspan
           sodipodi:role="line"
           x="128.83754"
           y="309.4353"
           style="line-height:94.99999881%;text-align:center;text-anchor:middle;fill:#000000;fill-opacity:1;stroke-width:0.26458332px"
           id="tspan4140">datatype: IRI</tspan></text>
    </g>
    <text
       id="text4232"
       y="280.06223"
       x="16.443226"
       style="font-style:normal;font-weight:normal;font-size:2.23242188px;line-height:94.99999881%;font-family:'Bitstream Vera Sans';text-align:center;letter-spacing:0px;word-spacing:0px;text-anchor:middle;fill:#000000;fill-opacity:1;stroke:none;stroke-width:0.26458332px;stroke-linecap:butt;stroke-linejoin:miter;stroke-opacity:1"
       xml:space="preserve"><tspan
         id="tspan4230"
         style="line-height:94.99999881%;text-align:center;text-anchor:middle;fill:#000000;fill-opacity:1;stroke-width:0.26458332px"
         y="280.06223"
         x="16.443226"
         sodipodi:role="line">1</tspan></text>
    <text
       id="text4276"
       y="277.30618"
       x="10.210259"
       style="font-style:normal;font-weight:normal;font-size:2.23242188px;line-height:94.99999881%;font-family:'Bitstream Vera Sans';text-align:center;letter-spacing:0px;word-spacing:0px;text-anchor:middle;fill:#000000;fill-opacity:1;stroke:none;stroke-width:0.26458332px;stroke-linecap:butt;stroke-linejoin:miter;stroke-opacity:1"
       xml:space="preserve"><tspan
         id="tspan4274"
         style="line-height:94.99999881%;text-align:center;text-anchor:middle;fill:#000000;fill-opacity:1;stroke-width:0.26458332px"
         y="277.30618"
         x="10.210259"
         sodipodi:role="line">default graph</tspan></text>
    <path
       sodipodi:nodetypes="ccc"
       inkscape:connector-curvature="0"
       id="path4284"
       d="m 11.675174,264.50438 16.62978,0.0661 v 7.83562"
       style="fill:none;fill-rule:evenodd;stroke:#000000;stroke-width:0.26499999;stroke-linecap:butt;stroke-linejoin:miter;stroke-miterlimit:4;stroke-dasharray:none;stroke-opacity:1;marker-end:url(#marker4294)" />
    <text
       xml:space="preserve"
       style="font-style:normal;font-weight:normal;font-size:2.23242188px;line-height:94.99999881%;font-family:'Bitstream Vera Sans';text-align:center;letter-spacing:0px;word-spacing:0px;text-anchor:middle;fill:#000000;fill-opacity:1;stroke:none;stroke-width:0.26458332px;stroke-linecap:butt;stroke-linejoin:miter;stroke-opacity:1"
       x="265.04395"
       y="-29.118155"
       id="text4288"
       transform="rotate(90)"><tspan
         sodipodi:role="line"
         x="265.04395"
         y="-29.118155"
         style="line-height:94.99999881%;text-align:center;text-anchor:middle;fill:#000000;fill-opacity:1;stroke-width:0.26458332px"
         id="tspan4286">named graph</tspan></text>
    <text
       xml:space="preserve"
       style="font-style:normal;font-weight:normal;font-size:2.23242188px;line-height:94.99999881%;font-family:'Bitstream Vera Sans';text-align:center;letter-spacing:0px;word-spacing:0px;text-anchor:middle;fill:#000000;fill-opacity:1;stroke:none;stroke-width:0.26458332px;stroke-linecap:butt;stroke-linejoin:miter;stroke-opacity:1"
       x="26.45363"
       y="272.4061"
       id="text4302"><tspan
         sodipodi:role="line"
         x="26.45363"
         y="272.4061"
         style="line-height:94.99999881%;text-align:center;text-anchor:middle;fill:#000000;fill-opacity:1;stroke-width:0.26458332px"
         id="tspan4300">1..</tspan></text>
    <text
       id="text4308"
       y="266.40533"
       x="12.5217"
       style="font-style:normal;font-weight:normal;font-size:2.23242188px;line-height:94.99999881%;font-family:'Bitstream Vera Sans';text-align:center;letter-spacing:0px;word-spacing:0px;text-anchor:middle;fill:#000000;fill-opacity:1;stroke:none;stroke-width:0.26458332px;stroke-linecap:butt;stroke-linejoin:miter;stroke-opacity:1"
       xml:space="preserve"><tspan
         id="tspan4306"
         style="line-height:94.99999881%;text-align:center;text-anchor:middle;fill:#000000;fill-opacity:1;stroke-width:0.26458332px"
         y="266.40533"
         x="12.5217"
         sodipodi:role="line">1</tspan></text>
  </g>
</svg>
