<?xml version="1.0" encoding="UTF-8" standalone="no"?>
<!-- Created with Inkscape (http://www.inkscape.org/) -->

<svg
   xmlns:dc="http://purl.org/dc/elements/1.1/"
   xmlns:cc="http://creativecommons.org/ns#"
   xmlns:rdf="http://www.w3.org/1999/02/22-rdf-syntax-ns#"
   xmlns:svg="http://www.w3.org/2000/svg"
   xmlns="http://www.w3.org/2000/svg"
   xmlns:sodipodi="http://sodipodi.sourceforge.net/DTD/sodipodi-0.dtd"
   xmlns:inkscape="http://www.inkscape.org/namespaces/inkscape"
   width="100.06707mm"
   height="43.847622mm"
   viewBox="0 0 100.06707 43.847625"
   version="1.1"
   id="svg1343"
   inkscape:version="0.92.2 5c3e80d, 2017-08-06"
   sodipodi:docname="scn-services.svg">
  <defs
     id="defs1337">
    <marker
       inkscape:stockid="Arrow2Mend"
       orient="auto"
       refY="0"
       refX="0"
       id="marker3419"
       style="overflow:visible"
       inkscape:isstock="true">
      <path
         id="path3417"
         style="fill:#555753;fill-opacity:1;fill-rule:evenodd;stroke:#555753;stroke-width:0.625;stroke-linejoin:round;stroke-opacity:1"
         d="M 8.7185878,4.0337352 -2.2072895,0.01601326 8.7185884,-4.0017078 c -1.7454984,2.3720609 -1.7354408,5.6174519 -6e-7,8.035443 z"
         transform="scale(-0.6)"
         inkscape:connector-curvature="0" />
    </marker>
    <marker
       inkscape:stockid="Arrow2Mend"
       orient="auto"
       refY="0"
       refX="0"
       id="marker3099"
       style="overflow:visible"
       inkscape:isstock="true">
      <path
         id="path3097"
         style="fill:#000000;fill-opacity:1;fill-rule:evenodd;stroke:#000000;stroke-width:0.625;stroke-linejoin:round;stroke-opacity:1"
         d="M 8.7185878,4.0337352 -2.2072895,0.01601326 8.7185884,-4.0017078 c -1.7454984,2.3720609 -1.7354408,5.6174519 -6e-7,8.035443 z"
         transform="scale(-0.6)"
         inkscape:connector-curvature="0" />
    </marker>
    <marker
       inkscape:isstock="true"
       style="overflow:visible"
       id="marker3093"
       refX="0"
       refY="0"
       orient="auto"
       inkscape:stockid="Arrow2Mend"
       inkscape:collect="always">
      <path
         inkscape:connector-curvature="0"
         transform="scale(-0.6)"
         d="M 8.7185878,4.0337352 -2.2072895,0.01601326 8.7185884,-4.0017078 c -1.7454984,2.3720609 -1.7354408,5.6174519 -6e-7,8.035443 z"
         style="fill:#000000;fill-opacity:1;fill-rule:evenodd;stroke:#000000;stroke-width:0.625;stroke-linejoin:round;stroke-opacity:1"
         id="path3091" />
    </marker>
    <marker
       inkscape:stockid="Arrow2Mend"
       orient="auto"
       refY="0"
       refX="0"
       id="marker3087"
       style="overflow:visible"
       inkscape:isstock="true"
       inkscape:collect="always">
      <path
         id="path3085"
         style="fill:#000000;fill-opacity:1;fill-rule:evenodd;stroke:#000000;stroke-width:0.625;stroke-linejoin:round;stroke-opacity:1"
         d="M 8.7185878,4.0337352 -2.2072895,0.01601326 8.7185884,-4.0017078 c -1.7454984,2.3720609 -1.7354408,5.6174519 -6e-7,8.035443 z"
         transform="scale(-0.6)"
         inkscape:connector-curvature="0" />
    </marker>
    <marker
       inkscape:isstock="true"
       style="overflow:visible"
       id="marker3079"
       refX="0"
       refY="0"
       orient="auto"
       inkscape:stockid="Arrow2Mend"
       inkscape:collect="always">
      <path
         inkscape:connector-curvature="0"
         transform="scale(-0.6)"
         d="M 8.7185878,4.0337352 -2.2072895,0.01601326 8.7185884,-4.0017078 c -1.7454984,2.3720609 -1.7354408,5.6174519 -6e-7,8.035443 z"
         style="fill:#000000;fill-opacity:1;fill-rule:evenodd;stroke:#000000;stroke-width:0.625;stroke-linejoin:round;stroke-opacity:1"
         id="path3077" />
    </marker>
    <marker
       inkscape:isstock="true"
       style="overflow:visible"
       id="marker3039"
       refX="0"
       refY="0"
       orient="auto"
       inkscape:stockid="Arrow2Mend"
       inkscape:collect="always">
      <path
         inkscape:connector-curvature="0"
         transform="scale(-0.6)"
         d="M 8.7185878,4.0337352 -2.2072895,0.01601326 8.7185884,-4.0017078 c -1.7454984,2.3720609 -1.7354408,5.6174519 -6e-7,8.035443 z"
         style="fill:#555753;fill-opacity:1;fill-rule:evenodd;stroke:#555753;stroke-width:0.625;stroke-linejoin:round;stroke-opacity:1"
         id="path3037" />
    </marker>
    <marker
       inkscape:isstock="true"
       style="overflow:visible"
       id="marker2863"
       refX="0"
       refY="0"
       orient="auto"
       inkscape:stockid="Arrow2Mend">
      <path
         inkscape:connector-curvature="0"
         transform="scale(-0.6)"
         d="M 8.7185878,4.0337352 -2.2072895,0.01601326 8.7185884,-4.0017078 c -1.7454984,2.3720609 -1.7354408,5.6174519 -6e-7,8.035443 z"
         style="fill:#000000;fill-opacity:1;fill-rule:evenodd;stroke:#000000;stroke-width:0.625;stroke-linejoin:round;stroke-opacity:1"
         id="path2861" />
    </marker>
    <marker
       inkscape:stockid="Arrow2Mend"
       orient="auto"
       refY="0"
       refX="0"
       id="marker2857"
       style="overflow:visible"
       inkscape:isstock="true"
       inkscape:collect="always">
      <path
         id="path2855"
         style="fill:#000000;fill-opacity:1;fill-rule:evenodd;stroke:#000000;stroke-width:0.625;stroke-linejoin:round;stroke-opacity:1"
         d="M 8.7185878,4.0337352 -2.2072895,0.01601326 8.7185884,-4.0017078 c -1.7454984,2.3720609 -1.7354408,5.6174519 -6e-7,8.035443 z"
         transform="scale(-0.6)"
         inkscape:connector-curvature="0" />
    </marker>
    <marker
       inkscape:isstock="true"
       style="overflow:visible"
       id="marker2780"
       refX="0"
       refY="0"
       orient="auto"
       inkscape:stockid="Arrow2Mend"
       inkscape:collect="always">
      <path
         inkscape:connector-curvature="0"
         transform="scale(-0.6)"
         d="M 8.7185878,4.0337352 -2.2072895,0.01601326 8.7185884,-4.0017078 c -1.7454984,2.3720609 -1.7354408,5.6174519 -6e-7,8.035443 z"
         style="fill:#000000;fill-opacity:1;fill-rule:evenodd;stroke:#000000;stroke-width:0.625;stroke-linejoin:round;stroke-opacity:1"
         id="path2778" />
    </marker>
    <marker
       inkscape:isstock="true"
       style="overflow:visible"
       id="marker2568"
       refX="0"
       refY="0"
       orient="auto"
       inkscape:stockid="EmptyTriangleOutL">
      <path
         inkscape:connector-curvature="0"
         transform="matrix(0.8,0,0,0.8,-4.8,0)"
         style="fill:#ffffff;fill-rule:evenodd;stroke:#000000;stroke-width:1.00000003pt;stroke-opacity:1"
         d="M 5.77,0 -2.88,5 V -5 Z"
         id="path2566" />
    </marker>
    <marker
       inkscape:stockid="EmptyDiamondLstart"
       orient="auto"
       refY="0"
       refX="0"
       id="EmptyDiamondLstart"
       style="overflow:visible"
       inkscape:isstock="true">
      <path
         id="path1056"
         d="M 0,-7.0710768 -7.0710894,0 0,7.0710589 7.0710462,0 Z"
         style="fill:#ffffff;fill-rule:evenodd;stroke:#000000;stroke-width:1.00000003pt;stroke-opacity:1"
         transform="matrix(0.8,0,0,0.8,5.6,0)"
         inkscape:connector-curvature="0" />
    </marker>
    <marker
       inkscape:isstock="true"
       style="overflow:visible"
       id="marker939"
       refX="0"
       refY="0"
       orient="auto"
       inkscape:stockid="EmptyTriangleOutL">
      <path
         inkscape:connector-curvature="0"
         transform="matrix(0.8,0,0,0.8,-4.8,0)"
         style="fill:#ffffff;fill-rule:evenodd;stroke:#000000;stroke-width:1.00000003pt;stroke-opacity:1"
         d="M 5.77,0 -2.88,5 V -5 Z"
         id="path937" />
    </marker>
    <marker
       inkscape:isstock="true"
       style="overflow:visible"
       id="marker3252"
       refX="0"
       refY="0"
       orient="auto"
       inkscape:stockid="EmptyTriangleOutL">
      <path
         inkscape:connector-curvature="0"
         transform="matrix(0.8,0,0,0.8,-4.8,0)"
         style="fill:#ffffff;fill-rule:evenodd;stroke:#000000;stroke-width:1.00000003pt;stroke-opacity:1"
         d="M 5.77,0 -2.88,5 V -5 Z"
         id="path3250" />
    </marker>
    <marker
       inkscape:stockid="EmptyTriangleOutL"
       orient="auto"
       refY="0"
       refX="0"
       id="marker2262"
       style="overflow:visible"
       inkscape:isstock="true">
      <path
         id="path2260"
         d="M 5.77,0 -2.88,5 V -5 Z"
         style="fill:#ffffff;fill-rule:evenodd;stroke:#000000;stroke-width:1.00000003pt;stroke-opacity:1"
         transform="matrix(0.8,0,0,0.8,-4.8,0)"
         inkscape:connector-curvature="0" />
    </marker>
    <marker
       inkscape:stockid="EmptyTriangleOutL"
       orient="auto"
       refY="0"
       refX="0"
       id="marker2148"
       style="overflow:visible"
       inkscape:isstock="true">
      <path
         id="path2146"
         d="M 5.77,0 -2.88,5 V -5 Z"
         style="fill:#ffffff;fill-rule:evenodd;stroke:#000000;stroke-width:1.00000003pt;stroke-opacity:1"
         transform="matrix(0.8,0,0,0.8,-4.8,0)"
         inkscape:connector-curvature="0" />
    </marker>
    <marker
       inkscape:stockid="EmptyTriangleOutL"
       orient="auto"
       refY="0"
       refX="0"
       id="marker7929"
       style="overflow:visible"
       inkscape:isstock="true">
      <path
         id="path7927"
         d="M 5.77,0 -2.88,5 V -5 Z"
         style="fill:#ffffff;fill-rule:evenodd;stroke:#000000;stroke-width:1.00000003pt;stroke-opacity:1"
         transform="matrix(0.8,0,0,0.8,-4.8,0)"
         inkscape:connector-curvature="0" />
    </marker>
    <marker
       inkscape:isstock="true"
       style="overflow:visible"
       id="marker6386"
       refX="0"
       refY="0"
       orient="auto"
       inkscape:stockid="EmptyTriangleOutL">
      <path
         transform="matrix(0.8,0,0,0.8,-4.8,0)"
         style="fill:#ffffff;fill-rule:evenodd;stroke:#000000;stroke-width:1.00000003pt;stroke-opacity:1"
         d="M 5.77,0 -2.88,5 V -5 Z"
         id="path6384"
         inkscape:connector-curvature="0" />
    </marker>
    <marker
       inkscape:isstock="true"
       style="overflow:visible"
       id="marker1101"
       refX="0"
       refY="0"
       orient="auto"
       inkscape:stockid="Arrow2Send">
      <path
         transform="matrix(-0.3,0,0,-0.3,0.69,0)"
         d="M 8.7185878,4.0337352 -2.2072895,0.01601326 8.7185884,-4.0017078 c -1.7454984,2.3720609 -1.7354408,5.6174519 -6e-7,8.035443 z"
         style="fill:#2e3436;fill-opacity:1;fill-rule:evenodd;stroke:#2e3436;stroke-width:0.625;stroke-linejoin:round;stroke-opacity:1"
         id="path1099"
         inkscape:connector-curvature="0" />
    </marker>
    <marker
       inkscape:stockid="Arrow2Send"
       orient="auto"
       refY="0"
       refX="0"
       id="marker1063"
       style="overflow:visible"
       inkscape:isstock="true">
      <path
         inkscape:connector-curvature="0"
         id="path1061"
         style="fill:#2e3436;fill-opacity:1;fill-rule:evenodd;stroke:#2e3436;stroke-width:0.625;stroke-linejoin:round;stroke-opacity:1"
         d="M 8.7185878,4.0337352 -2.2072895,0.01601326 8.7185884,-4.0017078 c -1.7454984,2.3720609 -1.7354408,5.6174519 -6e-7,8.035443 z"
         transform="matrix(-0.3,0,0,-0.3,0.69,0)" />
    </marker>
    <marker
       inkscape:isstock="true"
       style="overflow:visible"
       id="marker16846"
       refX="0"
       refY="0"
       orient="auto"
       inkscape:stockid="Arrow2Send">
      <path
         transform="matrix(-0.3,0,0,-0.3,0.69,0)"
         d="M 8.7185878,4.0337352 -2.2072895,0.01601326 8.7185884,-4.0017078 c -1.7454984,2.3720609 -1.7354408,5.6174519 -6e-7,8.035443 z"
         style="fill:#2e3436;fill-opacity:1;fill-rule:evenodd;stroke:#2e3436;stroke-width:0.625;stroke-linejoin:round;stroke-opacity:1"
         id="path16844"
         inkscape:connector-curvature="0" />
    </marker>
    <marker
       inkscape:stockid="Arrow2Send"
       orient="auto"
       refY="0"
       refX="0"
       id="marker11095"
       style="overflow:visible"
       inkscape:isstock="true">
      <path
         id="path11093"
         style="fill:#2e3436;fill-opacity:1;fill-rule:evenodd;stroke:#2e3436;stroke-width:0.625;stroke-linejoin:round;stroke-opacity:1"
         d="M 8.7185878,4.0337352 -2.2072895,0.01601326 8.7185884,-4.0017078 c -1.7454984,2.3720609 -1.7354408,5.6174519 -6e-7,8.035443 z"
         transform="matrix(-0.3,0,0,-0.3,0.69,0)"
         inkscape:connector-curvature="0" />
    </marker>
    <marker
       inkscape:isstock="true"
       style="overflow:visible"
       id="marker11011"
       refX="0"
       refY="0"
       orient="auto"
       inkscape:stockid="Arrow2Send">
      <path
         transform="matrix(-0.3,0,0,-0.3,0.69,0)"
         d="M 8.7185878,4.0337352 -2.2072895,0.01601326 8.7185884,-4.0017078 c -1.7454984,2.3720609 -1.7354408,5.6174519 -6e-7,8.035443 z"
         style="fill:#2e3436;fill-opacity:1;fill-rule:evenodd;stroke:#2e3436;stroke-width:0.625;stroke-linejoin:round;stroke-opacity:1"
         id="path11009"
         inkscape:connector-curvature="0" />
    </marker>
    <marker
       inkscape:isstock="true"
       style="overflow:visible"
       id="marker7970"
       refX="0"
       refY="0"
       orient="auto"
       inkscape:stockid="Arrow2Send">
      <path
         transform="matrix(-0.3,0,0,-0.3,0.69,0)"
         d="M 8.7185878,4.0337352 -2.2072895,0.01601326 8.7185884,-4.0017078 c -1.7454984,2.3720609 -1.7354408,5.6174519 -6e-7,8.035443 z"
         style="fill:#2e3436;fill-opacity:1;fill-rule:evenodd;stroke:#2e3436;stroke-width:0.625;stroke-linejoin:round;stroke-opacity:1"
         id="path7968"
         inkscape:connector-curvature="0" />
    </marker>
    <marker
       inkscape:stockid="Arrow2Sstart"
       orient="auto"
       refY="0"
       refX="0"
       id="Arrow2Sstart"
       style="overflow:visible"
       inkscape:isstock="true">
      <path
         id="path2336"
         style="fill:#000000;fill-opacity:1;fill-rule:evenodd;stroke:#000000;stroke-width:0.625;stroke-linejoin:round;stroke-opacity:1"
         d="M 8.7185878,4.0337352 -2.2072895,0.01601326 8.7185884,-4.0017078 c -1.7454984,2.3720609 -1.7354408,5.6174519 -6e-7,8.035443 z"
         transform="matrix(0.3,0,0,0.3,-0.69,0)"
         inkscape:connector-curvature="0" />
    </marker>
    <marker
       inkscape:stockid="Arrow1Sstart"
       orient="auto"
       refY="0"
       refX="0"
       id="Arrow1Sstart"
       style="overflow:visible"
       inkscape:isstock="true">
      <path
         id="path2318"
         d="M 0,0 5,-5 -12.5,0 5,5 Z"
         style="fill:#000000;fill-opacity:1;fill-rule:evenodd;stroke:#000000;stroke-width:1.00000003pt;stroke-opacity:1"
         transform="matrix(0.2,0,0,0.2,1.2,0)"
         inkscape:connector-curvature="0" />
    </marker>
    <marker
       inkscape:stockid="Arrow2Mend"
       orient="auto"
       refY="0"
       refX="0"
       id="Arrow2Mend"
       style="overflow:visible"
       inkscape:isstock="true"
       inkscape:collect="always">
      <path
         id="path910"
         style="fill:#000000;fill-opacity:1;fill-rule:evenodd;stroke:#000000;stroke-width:0.625;stroke-linejoin:round;stroke-opacity:1"
         d="M 8.7185878,4.0337352 -2.2072895,0.01601326 8.7185884,-4.0017078 c -1.7454984,2.3720609 -1.7354408,5.6174519 -6e-7,8.035443 z"
         transform="scale(-0.6)"
         inkscape:connector-curvature="0" />
    </marker>
    <marker
       inkscape:stockid="EmptyTriangleOutL"
       orient="auto"
       refY="0"
       refX="0"
       id="marker2400-5"
       style="overflow:visible"
       inkscape:isstock="true"
       inkscape:collect="always">
      <path
         id="path2398-3"
         d="M 5.77,0 -2.88,5 V -5 Z"
         style="fill:#ffffff;fill-rule:evenodd;stroke:#000000;stroke-width:1.00000003pt;stroke-opacity:1"
         transform="matrix(0.8,0,0,0.8,-4.8,0)"
         inkscape:connector-curvature="0" />
    </marker>
    <marker
       inkscape:stockid="EmptyDiamondLstart"
       orient="auto"
       refY="0"
       refX="0"
       id="EmptyDiamondLstart-6"
       style="overflow:visible"
       inkscape:isstock="true">
      <path
         id="path1056-2"
         d="M 0,-7.0710768 -7.0710894,0 0,7.0710589 7.0710462,0 Z"
         style="fill:#ffffff;fill-rule:evenodd;stroke:#000000;stroke-width:1.00000003pt;stroke-opacity:1"
         transform="matrix(0.8,0,0,0.8,5.6,0)"
         inkscape:connector-curvature="0" />
    </marker>
  </defs>
  <sodipodi:namedview
     id="base"
     pagecolor="#ffffff"
     bordercolor="#666666"
     borderopacity="1.0"
     inkscape:pageopacity="0.0"
     inkscape:pageshadow="2"
     inkscape:zoom="2.8284271"
     inkscape:cx="104.92289"
     inkscape:cy="92.572433"
     inkscape:document-units="mm"
     inkscape:current-layer="layer1"
     showgrid="false"
     inkscape:snap-center="false"
     inkscape:window-width="1916"
     inkscape:window-height="1041"
     inkscape:window-x="0"
     inkscape:window-y="37"
     inkscape:window-maximized="0"
     inkscape:snap-bbox="true"
     inkscape:snap-bbox-edge-midpoints="true"
     showguides="true"
     inkscape:guide-bbox="true"
     inkscape:snap-text-baseline="true"
     fit-margin-top="-0.1"
     fit-margin-left="0"
     fit-margin-right="0"
     fit-margin-bottom="0"
     inkscape:snap-object-midpoints="false"
     inkscape:snap-global="true"
     inkscape:snap-nodes="true"
     inkscape:snap-bbox-midpoints="true"
     inkscape:snap-intersection-paths="true"
     inkscape:snap-smooth-nodes="true">
    <sodipodi:guide
       position="22.187598,36.063876"
       orientation="1,0"
       id="guide2689"
       inkscape:locked="false" />
    <sodipodi:guide
       position="11.155493,44.52727"
       orientation="1,0"
       id="guide2725"
       inkscape:locked="false" />
    <sodipodi:guide
       position="64.503865,38.473153"
       orientation="1,0"
       id="guide2733"
       inkscape:locked="false" />
    <sodipodi:guide
       position="76.772171,28.504239"
       orientation="0,1"
       id="guide2760"
       inkscape:locked="false" />
    <sodipodi:guide
       position="64.04827,25.111035"
       orientation="1,0"
       id="guide2774"
       inkscape:locked="false" />
    <sodipodi:guide
       position="24.226816,38.473153"
       orientation="1,0"
       id="guide2782"
       inkscape:locked="false" />
    <sodipodi:guide
       position="77.910316,13.072436"
       orientation="1,0"
       id="guide2974"
       inkscape:locked="false" />
    <sodipodi:guide
       position="92.463605,13.072438"
       orientation="1,0"
       id="guide3031"
       inkscape:locked="false" />
    <sodipodi:guide
       position="101.30235,20.656213"
       orientation="1,0"
       id="guide3033"
       inkscape:locked="false" />
    <sodipodi:guide
       position="64.048268,38.473153"
       orientation="0,1"
       id="guide3071"
       inkscape:locked="false" />
    <sodipodi:guide
       position="24.648932,37.723722"
       orientation="1,0"
       id="guide3073"
       inkscape:locked="false" />
    <sodipodi:guide
       position="62.357583,38.005872"
       orientation="1,0"
       id="guide3081"
       inkscape:locked="false" />
    <sodipodi:guide
       position="51.27629,18.947245"
       orientation="0,1"
       id="guide3309"
       inkscape:locked="false" />
    <sodipodi:guide
       position="55.300483,4.3794925"
       orientation="0,1"
       id="guide3394"
       inkscape:locked="false" />
    <sodipodi:guide
       position="16.185668,37.47268"
       orientation="0,1"
       id="guide3411"
       inkscape:locked="false" />
    <sodipodi:guide
       position="87.315504,43.815124"
       orientation="0,1"
       id="guide3413"
       inkscape:locked="false" />
    <sodipodi:guide
       position="20.148377,22.362621"
       orientation="1,0"
       id="guide3423"
       inkscape:locked="false" />
    <sodipodi:guide
       position="46.765107,7.6067712"
       orientation="1,0"
       id="guide1043"
       inkscape:locked="false" />
  </sodipodi:namedview>
  <metadata
     id="metadata1340">
    <rdf:RDF>
      <cc:Work
         rdf:about="">
        <dc:format>image/svg+xml</dc:format>
        <dc:type
           rdf:resource="http://purl.org/dc/dcmitype/StillImage" />
        <dc:title />
      </cc:Work>
    </rdf:RDF>
  </metadata>
  <g
     inkscape:label="Layer 1"
     inkscape:groupmode="layer"
     id="layer1"
     transform="translate(-39.953018,-216.43408)">
    <g
       id="g2667"
       transform="translate(0,4.7932846)">
      <text
         id="text1522"
         y="214.75728"
         x="51.089619"
         style="font-style:normal;font-weight:normal;font-size:2.9765625px;line-height:94.99999881%;font-family:'Bitstream Vera Sans';text-align:center;letter-spacing:0px;word-spacing:0px;text-anchor:middle;fill:#000000;fill-opacity:1;stroke:none;stroke-width:0.26458332px;stroke-linecap:butt;stroke-linejoin:miter;stroke-opacity:1"
         xml:space="preserve"><tspan
           id="tspan1520"
           style="line-height:94.99999881%;text-align:center;text-anchor:middle;fill:#000000;fill-opacity:1;stroke-width:0.26458332px"
           y="214.75728"
           x="51.089619"
           sodipodi:role="line">Presence Feed</tspan></text>
      <rect
         style="fill:none;fill-opacity:1;stroke:#000000;stroke-width:0.26499999;stroke-linejoin:miter;stroke-miterlimit:4;stroke-dasharray:none;stroke-dashoffset:0;stroke-opacity:1"
         id="rect1524"
         width="21.947598"
         height="3.9486394"
         x="40.134712"
         y="211.67329"
         rx="0"
         ry="0" />
    </g>
    <path
       style="fill:none;fill-rule:evenodd;stroke:#000000;stroke-width:0.26499999;stroke-linecap:butt;stroke-linejoin:miter;stroke-miterlimit:4;stroke-dasharray:none;stroke-opacity:1;marker-end:url(#Arrow2Mend)"
       d="m 51.108511,220.41522 0.0186,1.39333 h 13.052724 39.821455"
       id="path1140"
       inkscape:connector-curvature="0"
       sodipodi:nodetypes="cccc" />
    <path
       style="fill:none;fill-rule:evenodd;stroke:#000000;stroke-width:0.26458332px;stroke-linecap:butt;stroke-linejoin:miter;stroke-opacity:1;marker-end:url(#marker2400-5)"
       d="M 58.896566,209.58582 V 195.6305"
       id="path2396-5"
       inkscape:connector-curvature="0"
       sodipodi:nodetypes="cc" />
    <path
       sodipodi:nodetypes="ccc"
       inkscape:connector-curvature="0"
       id="path935-9"
       d="m 63.833016,195.81651 v -4.0341 h 7.28225"
       style="fill:none;fill-rule:evenodd;stroke:#000000;stroke-width:0.26499999;stroke-linecap:butt;stroke-linejoin:miter;stroke-miterlimit:4;stroke-dasharray:none;stroke-opacity:1;marker-end:url(#EmptyDiamondLstart-6)" />
    <g
       id="g2628"
       transform="translate(57.731473,7.3774379)">
      <text
         xml:space="preserve"
         style="font-style:normal;font-weight:normal;font-size:2.9765625px;line-height:94.99999881%;font-family:'Bitstream Vera Sans';text-align:center;letter-spacing:0px;word-spacing:0px;text-anchor:middle;fill:#000000;fill-opacity:1;stroke:none;stroke-width:0.26458332px;stroke-linecap:butt;stroke-linejoin:miter;stroke-opacity:1"
         x="60.131859"
         y="212.17313"
         id="text2624"><tspan
           sodipodi:role="line"
           x="60.131859"
           y="212.17313"
           style="line-height:94.99999881%;text-align:center;text-anchor:middle;fill:#000000;fill-opacity:1;stroke-width:0.26458332px"
           id="tspan2622">LightControl</tspan></text>
      <rect
         ry="0"
         rx="0"
         y="209.08914"
         x="50.76445"
         height="3.9486394"
         width="18.772596"
         id="rect2626"
         style="fill:none;fill-opacity:1;stroke:#000000;stroke-width:0.26499999;stroke-linejoin:miter;stroke-miterlimit:4;stroke-dasharray:none;stroke-dashoffset:0;stroke-opacity:1" />
    </g>
    <g
       transform="translate(57.712582,17.119854)"
       id="g2636">
      <text
         id="text2632"
         y="212.17313"
         x="60.131859"
         style="font-style:normal;font-weight:normal;font-size:2.9765625px;line-height:94.99999881%;font-family:'Bitstream Vera Sans';text-align:center;letter-spacing:0px;word-spacing:0px;text-anchor:middle;fill:#000000;fill-opacity:1;stroke:none;stroke-width:0.26458332px;stroke-linecap:butt;stroke-linejoin:miter;stroke-opacity:1"
         xml:space="preserve"><tspan
           id="tspan2630"
           style="line-height:94.99999881%;text-align:center;text-anchor:middle;fill:#000000;fill-opacity:1;stroke-width:0.26458332px"
           y="212.17313"
           x="60.131859"
           sodipodi:role="line">AirConditioner</tspan></text>
      <rect
         style="fill:none;fill-opacity:1;stroke:#000000;stroke-width:0.26499999;stroke-linejoin:miter;stroke-miterlimit:4;stroke-dasharray:none;stroke-dashoffset:0;stroke-opacity:1"
         id="rect2634"
         width="22.079889"
         height="3.9486394"
         x="49.110806"
         y="209.08914"
         rx="0"
         ry="0" />
    </g>
    <text
       id="text2662"
       y="224.68681"
       x="51.104881"
       style="font-style:normal;font-weight:normal;font-size:2.53007817px;line-height:94.99999881%;font-family:'Bitstream Vera Sans';text-align:center;letter-spacing:0px;word-spacing:0px;text-anchor:middle;fill:#000000;fill-opacity:1;stroke:none;stroke-width:0.26458332px;stroke-linecap:butt;stroke-linejoin:miter;stroke-opacity:1"
       xml:space="preserve"><tspan
         id="tspan2660"
         style="line-height:94.99999881%;text-align:center;text-anchor:middle;fill:#000000;fill-opacity:1;stroke-width:0.26458332px"
         y="224.68681"
         x="51.104881"
         sodipodi:role="line">?entry a ex:Entry;</tspan></text>
    <text
       xml:space="preserve"
       style="font-style:normal;font-weight:normal;font-size:2.53007817px;line-height:94.99999881%;font-family:'Bitstream Vera Sans';text-align:center;letter-spacing:0px;word-spacing:0px;text-anchor:middle;fill:#000000;fill-opacity:1;stroke:none;stroke-width:0.26458332px;stroke-linecap:butt;stroke-linejoin:miter;stroke-opacity:1"
       x="80.497711"
       y="224.73129"
       id="text2671"><tspan
         sodipodi:role="line"
         x="80.497711"
         y="224.73129"
         style="line-height:94.99999881%;text-align:center;text-anchor:middle;fill:#000000;fill-opacity:1;stroke-width:0.26458332px"
         id="tspan2669">?x1 a saref:OnCommand;</tspan></text>
    <text
       id="text2687"
       y="225.94443"
       x="96.574242"
       style="font-style:normal;font-variant:normal;font-weight:normal;font-stretch:normal;font-size:1.23838079px;line-height:94.99999881%;font-family:'Bitstream Vera Sans Mono';-inkscape-font-specification:'Bitstream Vera Sans Mono';text-align:end;letter-spacing:0px;word-spacing:0px;text-anchor:end;fill:#000000;fill-opacity:1;stroke:none;stroke-width:0.26458332px;stroke-linecap:butt;stroke-linejoin:miter;stroke-opacity:1"
       xml:space="preserve"><tspan
         style="font-style:normal;font-variant:normal;font-weight:normal;font-stretch:normal;line-height:94.99999881%;font-family:'Bitstream Vera Sans Mono';-inkscape-font-specification:'Bitstream Vera Sans Mono';text-align:end;text-anchor:end;fill:#000000;fill-opacity:1;stroke-width:0.26458332px"
         y="225.94443"
         x="96.574242"
         sodipodi:role="line"
         id="tspan2699">uo:operatesOn ?room, ?name.</tspan></text>
    <text
       id="text2695"
       y="226.1322"
       x="62.429653"
       style="font-style:normal;font-variant:normal;font-weight:normal;font-stretch:normal;font-size:1.23838079px;line-height:94.99999881%;font-family:'Bitstream Vera Sans Mono';-inkscape-font-specification:'Bitstream Vera Sans Mono';text-align:end;letter-spacing:0px;word-spacing:0px;text-anchor:end;fill:#000000;fill-opacity:1;stroke:none;stroke-width:0.26458332px;stroke-linecap:butt;stroke-linejoin:miter;stroke-opacity:1"
       xml:space="preserve"><tspan
         id="tspan2693"
         style="font-style:normal;font-variant:normal;font-weight:normal;font-stretch:normal;line-height:94.99999881%;font-family:'Bitstream Vera Sans Mono';-inkscape-font-specification:'Bitstream Vera Sans Mono';text-align:end;text-anchor:end;fill:#000000;fill-opacity:1;stroke-width:0.26458332px"
         y="226.1322"
         x="62.429653"
         sodipodi:role="line">ex:room ?room;</tspan><tspan
         style="font-style:normal;font-variant:normal;font-weight:normal;font-stretch:normal;line-height:94.99999881%;font-family:'Bitstream Vera Sans Mono';-inkscape-font-specification:'Bitstream Vera Sans Mono';text-align:end;text-anchor:end;fill:#000000;fill-opacity:1;stroke-width:0.26458332px"
         y="227.30867"
         x="62.429653"
         sodipodi:role="line"
         id="tspan2697">?room ex:roomName ?name.</tspan></text>
    <text
       id="text2705"
       y="244.2572"
       x="75.017517"
       style="font-style:normal;font-weight:normal;font-size:2.53007817px;line-height:94.99999881%;font-family:'Bitstream Vera Sans';text-align:center;letter-spacing:0px;word-spacing:0px;text-anchor:middle;fill:#000000;fill-opacity:1;stroke:none;stroke-width:0.26458332px;stroke-linecap:butt;stroke-linejoin:miter;stroke-opacity:1"
       xml:space="preserve"><tspan
         id="tspan2703"
         style="line-height:94.99999881%;text-align:center;text-anchor:middle;fill:#000000;fill-opacity:1;stroke-width:0.26458332px"
         y="244.2572"
         x="75.017517"
         sodipodi:role="line">?x3 a http:POST;</tspan></text>
    <text
       xml:space="preserve"
       style="font-style:normal;font-variant:normal;font-weight:normal;font-stretch:normal;font-size:1.23838079px;line-height:94.99999881%;font-family:'Bitstream Vera Sans Mono';-inkscape-font-specification:'Bitstream Vera Sans Mono';text-align:end;letter-spacing:0px;word-spacing:0px;text-anchor:end;fill:#000000;fill-opacity:1;stroke:none;stroke-width:0.26458332px;stroke-linecap:butt;stroke-linejoin:miter;stroke-opacity:1"
       x="85.613861"
       y="245.70259"
       id="text2709"><tspan
         id="tspan2707"
         sodipodi:role="line"
         x="85.613861"
         y="245.70259"
         style="font-style:normal;font-variant:normal;font-weight:normal;font-stretch:normal;line-height:94.99999881%;font-family:'Bitstream Vera Sans Mono';-inkscape-font-specification:'Bitstream Vera Sans Mono';text-align:end;text-anchor:end;fill:#000000;fill-opacity:1;stroke-width:0.26458332px">uo:operatesOn ?on.</tspan></text>
    <text
       xml:space="preserve"
       style="font-style:normal;font-weight:normal;font-size:2.53007817px;line-height:94.99999881%;font-family:'Bitstream Vera Sans';text-align:center;letter-spacing:0px;word-spacing:0px;text-anchor:middle;fill:#000000;fill-opacity:1;stroke:none;stroke-width:0.26458332px;stroke-linecap:butt;stroke-linejoin:miter;stroke-opacity:1"
       x="98.183159"
       y="230.74117"
       id="text2713"><tspan
         sodipodi:role="line"
         x="98.183159"
         y="230.74117"
         style="line-height:94.99999881%;text-align:center;text-anchor:middle;fill:#000000;fill-opacity:1;stroke-width:0.26458332px"
         id="tspan2711">?name</tspan></text>
    <text
       xml:space="preserve"
       style="font-style:normal;font-weight:normal;font-size:2.53007817px;line-height:94.99999881%;font-family:'Bitstream Vera Sans';text-align:center;letter-spacing:0px;word-spacing:0px;text-anchor:middle;fill:#000000;fill-opacity:1;stroke:none;stroke-width:0.26458332px;stroke-linecap:butt;stroke-linejoin:miter;stroke-opacity:1"
       x="75.017517"
       y="258.5787"
       id="text2717"><tspan
         sodipodi:role="line"
         x="75.017517"
         y="258.5787"
         style="line-height:94.99999881%;text-align:center;text-anchor:middle;fill:#000000;fill-opacity:1;stroke-width:0.26458332px"
         id="tspan2715">?x4 a http:POST;</tspan></text>
    <text
       id="text2721"
       y="260.02411"
       x="90.81485"
       style="font-style:normal;font-variant:normal;font-weight:normal;font-stretch:normal;font-size:1.23838079px;line-height:94.99999881%;font-family:'Bitstream Vera Sans Mono';-inkscape-font-specification:'Bitstream Vera Sans Mono';text-align:end;letter-spacing:0px;word-spacing:0px;text-anchor:end;fill:#000000;fill-opacity:1;stroke:none;stroke-width:0.26458332px;stroke-linecap:butt;stroke-linejoin:miter;stroke-opacity:1"
       xml:space="preserve"><tspan
         style="font-style:normal;font-variant:normal;font-weight:normal;font-stretch:normal;line-height:94.99999881%;font-family:'Bitstream Vera Sans Mono';-inkscape-font-specification:'Bitstream Vera Sans Mono';text-align:end;text-anchor:end;fill:#000000;fill-opacity:1;stroke-width:0.26458332px"
         y="260.02411"
         x="90.81485"
         sodipodi:role="line"
         id="tspan2719">uo:operatesOn ?temp.</tspan></text>
    <text
       id="text2729"
       y="220.77225"
       x="98.578484"
       style="font-style:normal;font-weight:normal;font-size:2.53007817px;line-height:94.99999881%;font-family:'Bitstream Vera Sans';text-align:center;letter-spacing:0px;word-spacing:0px;text-anchor:middle;fill:#000000;fill-opacity:1;stroke:none;stroke-width:0.26458332px;stroke-linecap:butt;stroke-linejoin:miter;stroke-opacity:1"
       xml:space="preserve"><tspan
         id="tspan2727"
         style="line-height:94.99999881%;text-align:center;text-anchor:middle;fill:#000000;fill-opacity:1;stroke-width:0.26458332px"
         y="220.77225"
         x="98.578484"
         sodipodi:role="line">?room</tspan></text>
    <text
       id="text2737"
       y="222.72954"
       x="117.89333"
       style="font-style:normal;font-weight:normal;font-size:2.53007817px;line-height:94.99999881%;font-family:'Bitstream Vera Sans';text-align:center;letter-spacing:0px;word-spacing:0px;text-anchor:middle;fill:#000000;fill-opacity:1;stroke:none;stroke-width:0.26458332px;stroke-linecap:butt;stroke-linejoin:miter;stroke-opacity:1"
       xml:space="preserve"><tspan
         id="tspan2735"
         style="line-height:94.99999881%;text-align:center;text-anchor:middle;fill:#000000;fill-opacity:1;stroke-width:0.26458332px"
         y="222.72954"
         x="117.89333"
         sodipodi:role="line">#TurnOn</tspan></text>
    <text
       xml:space="preserve"
       style="font-style:normal;font-weight:normal;font-size:2.53007817px;line-height:94.99999881%;font-family:'Bitstream Vera Sans';text-align:center;letter-spacing:0px;word-spacing:0px;text-anchor:middle;fill:#000000;fill-opacity:1;stroke:none;stroke-width:0.26458332px;stroke-linecap:butt;stroke-linejoin:miter;stroke-opacity:1"
       x="117.80583"
       y="232.53229"
       id="text2764"><tspan
         sodipodi:role="line"
         x="117.80583"
         y="232.53229"
         style="line-height:94.99999881%;text-align:center;text-anchor:middle;fill:#000000;fill-opacity:1;stroke-width:0.26458332px"
         id="tspan2762">GET /{room}/ac</tspan></text>
    <text
       id="text2768"
       y="242.25545"
       x="117.84789"
       style="font-style:normal;font-weight:normal;font-size:2.53007817px;line-height:94.99999881%;font-family:'Bitstream Vera Sans';text-align:center;letter-spacing:0px;word-spacing:0px;text-anchor:middle;fill:#000000;fill-opacity:1;stroke:none;stroke-width:0.26458332px;stroke-linecap:butt;stroke-linejoin:miter;stroke-opacity:1"
       xml:space="preserve"><tspan
         id="tspan2766"
         style="line-height:94.99999881%;text-align:center;text-anchor:middle;fill:#000000;fill-opacity:1;stroke-width:0.26458332px"
         y="242.25545"
         x="117.84789"
         sodipodi:role="line">POST ?on</tspan></text>
    <text
       xml:space="preserve"
       style="font-style:normal;font-weight:normal;font-size:2.53007817px;line-height:94.99999881%;font-family:'Bitstream Vera Sans';text-align:center;letter-spacing:0px;word-spacing:0px;text-anchor:middle;fill:#000000;fill-opacity:1;stroke:none;stroke-width:0.26458332px;stroke-linecap:butt;stroke-linejoin:miter;stroke-opacity:1"
       x="117.80774"
       y="256.57797"
       id="text2772"><tspan
         sodipodi:role="line"
         x="117.80774"
         y="256.57797"
         style="line-height:94.99999881%;text-align:center;text-anchor:middle;fill:#000000;fill-opacity:1;stroke-width:0.26458332px"
         id="tspan2770">POST ?temp</tspan></text>
    <path
       sodipodi:nodetypes="ccc"
       inkscape:connector-curvature="0"
       id="path2776"
       d="m 64.179833,221.80855 0,9.96891 39.821457,0"
       style="fill:none;fill-rule:evenodd;stroke:#000000;stroke-width:0.26499999;stroke-linecap:butt;stroke-linejoin:miter;stroke-miterlimit:4;stroke-dasharray:none;stroke-opacity:1;marker-end:url(#marker2780)" />
    <path
       style="fill:none;fill-rule:evenodd;stroke:#000000;stroke-width:0.26499999;stroke-linecap:butt;stroke-linejoin:miter;stroke-miterlimit:4;stroke-dasharray:none;stroke-opacity:1;marker-end:url(#marker2857)"
       d="m 62.140615,232.06979 v 9.26467 h 41.860675"
       id="path2853"
       inkscape:connector-curvature="0"
       sodipodi:nodetypes="ccc" />
    <path
       sodipodi:nodetypes="ccc"
       inkscape:connector-curvature="0"
       id="path2859"
       d="m 60.101394,241.62798 v 14.27423 h 44.018756"
       style="fill:none;fill-rule:evenodd;stroke:#000000;stroke-width:0.26499999;stroke-linecap:butt;stroke-linejoin:miter;stroke-miterlimit:4;stroke-dasharray:none;stroke-opacity:1;marker-end:url(#marker2863)" />
    <rect
       ry="0"
       rx="0"
       y="190.30107"
       x="82.839691"
       height="3"
       width="5.6910205"
       id="rect2865"
       style="opacity:1;fill:#204a87;fill-opacity:1;stroke:none;stroke-width:0.40000007;stroke-linejoin:miter;stroke-miterlimit:4;stroke-dasharray:none;stroke-dashoffset:0;stroke-opacity:1" />
    <rect
       style="opacity:1;fill:#204a87;fill-opacity:1;stroke:none;stroke-width:0.40000001;stroke-linejoin:miter;stroke-miterlimit:4;stroke-dasharray:none;stroke-dashoffset:0;stroke-opacity:1"
       id="rect2739-3"
       width="5.6910205"
       height="1.0004759"
       x="84.149307"
       y="199.15855"
       rx="0"
       ry="0" />
    <text
       id="text3021"
       y="136.45984"
       x="-224.29933"
       style="font-style:normal;font-weight:normal;font-size:2.53007817px;line-height:94.99999881%;font-family:'Bitstream Vera Sans';text-align:center;letter-spacing:0px;word-spacing:0px;text-anchor:middle;fill:#555753;fill-opacity:1;stroke:none;stroke-width:0.26458332px;stroke-linecap:butt;stroke-linejoin:miter;stroke-opacity:1"
       xml:space="preserve"
       transform="rotate(-90)"><tspan
         id="tspan3019"
         style="line-height:94.99999881%;text-align:center;text-anchor:middle;fill:#555753;fill-opacity:1;stroke-width:0.26458332px"
         y="136.45984"
         x="-223.89659"
         sodipodi:role="line">hypermedia </tspan><tspan
         style="line-height:94.99999881%;text-align:center;text-anchor:middle;fill:#555753;fill-opacity:1;stroke-width:0.26458332px"
         y="138.86342"
         x="-224.29933"
         sodipodi:role="line"
         id="tspan3023">controls</tspan></text>
    <path
       sodipodi:nodetypes="ccc"
       inkscape:connector-curvature="0"
       id="path3035"
       d="m 132.41662,231.77746 c 8.81292,0 8.57444,9.557 1.30358,9.557 h -1.30358"
       style="fill:none;fill-rule:evenodd;stroke:#555753;stroke-width:0.26499999;stroke-linecap:butt;stroke-linejoin:miter;stroke-miterlimit:4;stroke-dasharray:none;stroke-opacity:1;marker-end:url(#marker3039)" />
    <path
       sodipodi:nodetypes="cc"
       inkscape:connector-curvature="0"
       id="path3075"
       d="M 102.3106,222.27458 H 96.679712"
       style="fill:none;fill-rule:evenodd;stroke:#000000;stroke-width:0.13034712;stroke-linecap:butt;stroke-linejoin:miter;stroke-miterlimit:4;stroke-dasharray:none;stroke-opacity:1;marker-end:url(#marker3079)" />
    <path
       style="fill:none;fill-rule:evenodd;stroke:#000000;stroke-width:0.13034712;stroke-linecap:butt;stroke-linejoin:miter;stroke-miterlimit:4;stroke-dasharray:none;stroke-opacity:1;marker-end:url(#marker3087)"
       d="M 102.3106,232.25543 H 62.473867"
       id="path3083"
       inkscape:connector-curvature="0"
       sodipodi:nodetypes="cc" />
    <path
       sodipodi:nodetypes="cc"
       inkscape:connector-curvature="0"
       id="path3089"
       d="M 102.3106,241.80801 H 60.43237"
       style="fill:none;fill-rule:evenodd;stroke:#000000;stroke-width:0.13034712;stroke-linecap:butt;stroke-linejoin:miter;stroke-miterlimit:4;stroke-dasharray:none;stroke-opacity:1;marker-end:url(#marker3093)" />
    <path
       style="fill:none;fill-rule:evenodd;stroke:#000000;stroke-width:0.13034712;stroke-linecap:butt;stroke-linejoin:miter;stroke-miterlimit:4;stroke-dasharray:none;stroke-opacity:1;marker-end:url(#marker3099)"
       d="M 102.3106,256.37665 H 96.679712"
       id="path3095"
       inkscape:connector-curvature="0"
       sodipodi:nodetypes="cc" />
    <text
       xml:space="preserve"
       style="font-style:normal;font-weight:normal;font-size:2.53007817px;line-height:94.99999881%;font-family:'Bitstream Vera Sans';text-align:start;letter-spacing:0px;word-spacing:0px;text-anchor:start;fill:#000000;fill-opacity:1;stroke:none;stroke-width:0.26458332px;stroke-linecap:butt;stroke-linejoin:miter;stroke-opacity:1"
       x="64.420349"
       y="234.70021"
       id="text3147"><tspan
         sodipodi:role="line"
         x="64.420349"
         y="234.70021"
         style="line-height:94.99999881%;text-align:start;text-anchor:start;fill:#000000;fill-opacity:1;stroke-width:0.26458332px"
         id="tspan3145">?x2 a http:GET.</tspan><tspan
         sodipodi:role="line"
         x="64.420349"
         y="237.10379"
         style="line-height:94.99999881%;text-align:start;text-anchor:start;fill:#000000;fill-opacity:1;stroke-width:0.26458332px"
         id="tspan3149">?ac a ex:AirConditioner;</tspan></text>
    <text
       xml:space="preserve"
       style="font-style:normal;font-variant:normal;font-weight:normal;font-stretch:normal;font-size:1.23838079px;line-height:94.99999881%;font-family:'Bitstream Vera Sans Mono';-inkscape-font-specification:'Bitstream Vera Sans Mono';text-align:end;letter-spacing:0px;word-spacing:0px;text-anchor:end;fill:#000000;fill-opacity:1;stroke:none;stroke-width:0.26458332px;stroke-linecap:butt;stroke-linejoin:miter;stroke-opacity:1"
       x="94.599174"
       y="238.31693"
       id="text2709-2"><tspan
         id="tspan2707-0"
         sodipodi:role="line"
         x="94.599174"
         y="238.31693"
         style="font-style:normal;font-variant:normal;font-weight:normal;font-stretch:normal;line-height:94.99999881%;font-family:'Bitstream Vera Sans Mono';-inkscape-font-specification:'Bitstream Vera Sans Mono';text-align:end;text-anchor:end;fill:#000000;fill-opacity:1;stroke-width:0.26458332px">ex:on ?on</tspan></text>
    <text
       id="text3173"
       y="247.98245"
       x="64.420349"
       style="font-style:normal;font-weight:normal;font-size:2.53007817px;line-height:94.99999881%;font-family:'Bitstream Vera Sans';text-align:start;letter-spacing:0px;word-spacing:0px;text-anchor:start;fill:#000000;fill-opacity:1;stroke:none;stroke-width:0.26458332px;stroke-linecap:butt;stroke-linejoin:miter;stroke-opacity:1"
       xml:space="preserve"><tspan
         id="tspan3171"
         style="line-height:94.99999881%;text-align:start;text-anchor:start;fill:#000000;fill-opacity:1;stroke-width:0.26458332px"
         y="247.98245"
         x="64.420349"
         sodipodi:role="line">?ac a ex:AirConditioner;</tspan></text>
    <text
       id="text3179"
       y="249.19559"
       x="94.448967"
       style="font-style:normal;font-variant:normal;font-weight:normal;font-stretch:normal;font-size:1.23838079px;line-height:94.99999881%;font-family:'Bitstream Vera Sans Mono';-inkscape-font-specification:'Bitstream Vera Sans Mono';text-align:end;letter-spacing:0px;word-spacing:0px;text-anchor:end;fill:#000000;fill-opacity:1;stroke:none;stroke-width:0.26458332px;stroke-linecap:butt;stroke-linejoin:miter;stroke-opacity:1"
       xml:space="preserve"><tspan
         style="font-style:normal;font-variant:normal;font-weight:normal;font-stretch:normal;line-height:94.99999881%;font-family:'Bitstream Vera Sans Mono';-inkscape-font-specification:'Bitstream Vera Sans Mono';text-align:end;text-anchor:end;fill:#000000;fill-opacity:1;stroke-width:0.26458332px"
         y="249.19559"
         x="94.448967"
         sodipodi:role="line"
         id="tspan3177">ex:temperature ?temp</tspan></text>
    <rect
       style="opacity:1;fill:#204a87;fill-opacity:1;stroke:none;stroke-width:0.40000001;stroke-linejoin:miter;stroke-miterlimit:4;stroke-dasharray:none;stroke-dashoffset:0;stroke-opacity:1"
       id="rect2739"
       width="5.0362105"
       height="0.31989589"
       x="75.534912"
       y="196.78989"
       rx="0"
       ry="0" />
    <text
       id="text3377"
       y="254.37546"
       x="95.698792"
       style="font-style:normal;font-weight:normal;font-size:2.53007817px;line-height:94.99999881%;font-family:'Bitstream Vera Sans';text-align:center;letter-spacing:0px;word-spacing:0px;text-anchor:middle;fill:#000000;fill-opacity:1;stroke:none;stroke-width:0.26458332px;stroke-linecap:butt;stroke-linejoin:miter;stroke-opacity:1"
       xml:space="preserve"><tspan
         id="tspan3375"
         style="line-height:94.99999881%;text-align:center;text-anchor:middle;fill:#000000;fill-opacity:1;stroke-width:0.26458332px"
         y="254.37546"
         x="95.698792"
         sodipodi:role="line">?goalTemp</tspan></text>
    <path
       style="fill:none;fill-rule:evenodd;stroke:#555753;stroke-width:0.26499999;stroke-linecap:butt;stroke-linejoin:miter;stroke-miterlimit:4;stroke-dasharray:none;stroke-opacity:1;marker-end:url(#marker3419)"
       d="m 132.41662,241.33446 c 8.81292,0 8.57444,14.56775 1.30358,14.56775 h -1.30358"
       id="path3415"
       inkscape:connector-curvature="0"
       sodipodi:nodetypes="ccc" />
    <g
       id="g1009"
       transform="translate(17.046782,1.3225244)">
      <circle
         r="0.84189904"
         cy="218.82317"
         cx="69.671341"
         id="path982"
         style="opacity:1;fill:none;fill-opacity:1;stroke:#000000;stroke-width:0.1;stroke-linejoin:miter;stroke-miterlimit:4;stroke-dasharray:none;stroke-dashoffset:0;stroke-opacity:1" />
      <text
         id="text986"
         y="219.44972"
         x="69.109001"
         style="font-style:normal;font-variant:normal;font-weight:normal;font-stretch:normal;font-size:1.71892583px;line-height:3.81983519px;font-family:'Bitstream Vera Sans Mono';-inkscape-font-specification:'Bitstream Vera Sans Mono';letter-spacing:0px;word-spacing:0px;fill:#000000;fill-opacity:1;stroke:none;stroke-width:0.26458332px;stroke-linecap:butt;stroke-linejoin:miter;stroke-opacity:1"
         xml:space="preserve"><tspan
           style="stroke-width:0.26458332px"
           y="219.44972"
           x="69.109001"
           id="tspan984"
           sodipodi:role="line">1</tspan></text>
    </g>
    <g
       transform="translate(17.046782,11.28012)"
       id="g1017">
      <circle
         style="opacity:1;fill:none;fill-opacity:1;stroke:#000000;stroke-width:0.1;stroke-linejoin:miter;stroke-miterlimit:4;stroke-dasharray:none;stroke-dashoffset:0;stroke-opacity:1"
         id="circle1011"
         cx="69.671341"
         cy="218.82317"
         r="0.84189904" />
      <text
         xml:space="preserve"
         style="font-style:normal;font-variant:normal;font-weight:normal;font-stretch:normal;font-size:1.71892583px;line-height:3.81983519px;font-family:'Bitstream Vera Sans Mono';-inkscape-font-specification:'Bitstream Vera Sans Mono';letter-spacing:0px;word-spacing:0px;fill:#000000;fill-opacity:1;stroke:none;stroke-width:0.26458332px;stroke-linecap:butt;stroke-linejoin:miter;stroke-opacity:1"
         x="69.163132"
         y="219.46104"
         id="text1015"><tspan
           sodipodi:role="line"
           id="tspan1013"
           x="69.163132"
           y="219.46104"
           style="stroke-width:0.26458332px">2</tspan></text>
    </g>
    <g
       id="g1009-3"
       transform="translate(17.046782,20.787924)">
      <circle
         r="0.84189904"
         cy="218.82317"
         cx="69.671341"
         id="path982-6"
         style="opacity:1;fill:none;fill-opacity:1;stroke:#000000;stroke-width:0.1;stroke-linejoin:miter;stroke-miterlimit:4;stroke-dasharray:none;stroke-dashoffset:0;stroke-opacity:1" />
      <text
         id="text986-7"
         y="219.44888"
         x="69.161034"
         style="font-style:normal;font-variant:normal;font-weight:normal;font-stretch:normal;font-size:1.71892583px;line-height:3.81983519px;font-family:'Bitstream Vera Sans Mono';-inkscape-font-specification:'Bitstream Vera Sans Mono';letter-spacing:0px;word-spacing:0px;fill:#000000;fill-opacity:1;stroke:none;stroke-width:0.26458332px;stroke-linecap:butt;stroke-linejoin:miter;stroke-opacity:1"
         xml:space="preserve"><tspan
           style="stroke-width:0.26458332px"
           y="219.44888"
           x="69.161034"
           id="tspan984-5"
           sodipodi:role="line">3</tspan></text>
    </g>
    <g
       id="g1009-3-6"
       transform="translate(17.046782,34.925735)">
      <circle
         r="0.84189904"
         cy="218.82317"
         cx="69.671341"
         id="path982-6-2"
         style="opacity:1;fill:none;fill-opacity:1;stroke:#000000;stroke-width:0.1;stroke-linejoin:miter;stroke-miterlimit:4;stroke-dasharray:none;stroke-dashoffset:0;stroke-opacity:1" />
      <text
         id="text986-7-9"
         y="219.44972"
         x="69.152222"
         style="font-style:normal;font-variant:normal;font-weight:normal;font-stretch:normal;font-size:1.71892583px;line-height:3.81983519px;font-family:'Bitstream Vera Sans Mono';-inkscape-font-specification:'Bitstream Vera Sans Mono';letter-spacing:0px;word-spacing:0px;fill:#000000;fill-opacity:1;stroke:none;stroke-width:0.26458332px;stroke-linecap:butt;stroke-linejoin:miter;stroke-opacity:1"
         xml:space="preserve"><tspan
           style="stroke-width:0.26458332px"
           y="219.44972"
           x="69.152222"
           id="tspan984-5-1"
           sodipodi:role="line">4</tspan></text>
    </g>
  </g>
</svg>
