<?xml version="1.0" encoding="UTF-8" standalone="no"?>
<!-- Created with Inkscape (http://www.inkscape.org/) -->

<svg
   xmlns:dc="http://purl.org/dc/elements/1.1/"
   xmlns:cc="http://creativecommons.org/ns#"
   xmlns:rdf="http://www.w3.org/1999/02/22-rdf-syntax-ns#"
   xmlns:svg="http://www.w3.org/2000/svg"
   xmlns="http://www.w3.org/2000/svg"
   xmlns:sodipodi="http://sodipodi.sourceforge.net/DTD/sodipodi-0.dtd"
   xmlns:inkscape="http://www.inkscape.org/namespaces/inkscape"
   width="74.836662mm"
   height="52.758549mm"
   viewBox="0 0 74.836649 52.758549"
   version="1.1"
   id="svg8"
   sodipodi:docname="protocol-model-long.svg"
   inkscape:version="0.92.2 5c3e80d, 2017-08-06">
  <defs
     id="defs2">
    <marker
       inkscape:stockid="Arrow2Mend"
       orient="auto"
       refY="0"
       refX="0"
       id="marker7193"
       style="overflow:visible"
       inkscape:isstock="true">
      <path
         inkscape:connector-curvature="0"
         id="path7191"
         style="fill:#000000;fill-opacity:1;fill-rule:evenodd;stroke:#000000;stroke-width:0.625;stroke-linejoin:round;stroke-opacity:1"
         d="M 8.7185878,4.0337352 -2.2072895,0.01601326 8.7185884,-4.0017078 c -1.7454984,2.3720609 -1.7354408,5.6174519 -6e-7,8.035443 z"
         transform="scale(-0.6)" />
    </marker>
    <marker
       inkscape:isstock="true"
       style="overflow:visible"
       id="marker5137"
       refX="0"
       refY="0"
       orient="auto"
       inkscape:stockid="Arrow2Mend">
      <path
         inkscape:connector-curvature="0"
         transform="scale(-0.6)"
         d="M 8.7185878,4.0337352 -2.2072895,0.01601326 8.7185884,-4.0017078 c -1.7454984,2.3720609 -1.7354408,5.6174519 -6e-7,8.035443 z"
         style="fill:#000000;fill-opacity:1;fill-rule:evenodd;stroke:#000000;stroke-width:0.625;stroke-linejoin:round;stroke-opacity:1"
         id="path5135" />
    </marker>
    <marker
       inkscape:stockid="Arrow2Mend"
       orient="auto"
       refY="0"
       refX="0"
       id="marker4939"
       style="overflow:visible"
       inkscape:isstock="true">
      <path
         inkscape:connector-curvature="0"
         id="path4937"
         style="fill:#000000;fill-opacity:1;fill-rule:evenodd;stroke:#000000;stroke-width:0.625;stroke-linejoin:round;stroke-opacity:1"
         d="M 8.7185878,4.0337352 -2.2072895,0.01601326 8.7185884,-4.0017078 c -1.7454984,2.3720609 -1.7354408,5.6174519 -6e-7,8.035443 z"
         transform="scale(-0.6)" />
    </marker>
    <marker
       inkscape:stockid="Arrow2Mend"
       orient="auto"
       refY="0"
       refX="0"
       id="marker3273"
       style="overflow:visible"
       inkscape:isstock="true"
       inkscape:collect="always">
      <path
         id="path3271"
         style="fill:#000000;fill-opacity:1;fill-rule:evenodd;stroke:#000000;stroke-width:0.625;stroke-linejoin:round;stroke-opacity:1"
         d="M 8.7185878,4.0337352 -2.2072895,0.01601326 8.7185884,-4.0017078 c -1.7454984,2.3720609 -1.7354408,5.6174519 -6e-7,8.035443 z"
         transform="scale(-0.6)"
         inkscape:connector-curvature="0" />
    </marker>
    <marker
       inkscape:isstock="true"
       style="overflow:visible"
       id="marker3165"
       refX="0"
       refY="0"
       orient="auto"
       inkscape:stockid="Arrow2Mend"
       inkscape:collect="always">
      <path
         inkscape:connector-curvature="0"
         transform="scale(-0.6)"
         d="M 8.7185878,4.0337352 -2.2072895,0.01601326 8.7185884,-4.0017078 c -1.7454984,2.3720609 -1.7354408,5.6174519 -6e-7,8.035443 z"
         style="fill:#000000;fill-opacity:1;fill-rule:evenodd;stroke:#000000;stroke-width:0.625;stroke-linejoin:round;stroke-opacity:1"
         id="path3163" />
    </marker>
    <marker
       inkscape:stockid="Arrow2Mend"
       orient="auto"
       refY="0"
       refX="0"
       id="marker3065"
       style="overflow:visible"
       inkscape:isstock="true">
      <path
         inkscape:connector-curvature="0"
         id="path3063"
         style="fill:#000000;fill-opacity:1;fill-rule:evenodd;stroke:#000000;stroke-width:0.625;stroke-linejoin:round;stroke-opacity:1"
         d="M 8.7185878,4.0337352 -2.2072895,0.01601326 8.7185884,-4.0017078 c -1.7454984,2.3720609 -1.7354408,5.6174519 -6e-7,8.035443 z"
         transform="scale(-0.6)" />
    </marker>
    <marker
       inkscape:isstock="true"
       style="overflow:visible"
       id="marker6122"
       refX="0"
       refY="0"
       orient="auto"
       inkscape:stockid="Arrow2Mend">
      <path
         inkscape:connector-curvature="0"
         transform="scale(-0.6)"
         d="M 8.7185878,4.0337352 -2.2072895,0.01601326 8.7185884,-4.0017078 c -1.7454984,2.3720609 -1.7354408,5.6174519 -6e-7,8.035443 z"
         style="fill:#000000;fill-opacity:1;fill-rule:evenodd;stroke:#000000;stroke-width:0.625;stroke-linejoin:round;stroke-opacity:1"
         id="path6120" />
    </marker>
    <marker
       inkscape:stockid="Arrow2Mend"
       orient="auto"
       refY="0"
       refX="0"
       id="marker5821"
       style="overflow:visible"
       inkscape:isstock="true"
       inkscape:collect="always">
      <path
         id="path5819"
         style="fill:#000000;fill-opacity:1;fill-rule:evenodd;stroke:#000000;stroke-width:0.625;stroke-linejoin:round;stroke-opacity:1"
         d="M 8.7185878,4.0337352 -2.2072895,0.01601326 8.7185884,-4.0017078 c -1.7454984,2.3720609 -1.7354408,5.6174519 -6e-7,8.035443 z"
         transform="scale(-0.6)"
         inkscape:connector-curvature="0" />
    </marker>
    <marker
       inkscape:isstock="true"
       style="overflow:visible"
       id="marker5815"
       refX="0"
       refY="0"
       orient="auto"
       inkscape:stockid="Arrow2Mend"
       inkscape:collect="always">
      <path
         transform="scale(-0.6)"
         d="M 8.7185878,4.0337352 -2.2072895,0.01601326 8.7185884,-4.0017078 c -1.7454984,2.3720609 -1.7354408,5.6174519 -6e-7,8.035443 z"
         style="fill:#000000;fill-opacity:1;fill-rule:evenodd;stroke:#000000;stroke-width:0.625;stroke-linejoin:round;stroke-opacity:1"
         id="path5813"
         inkscape:connector-curvature="0" />
    </marker>
    <marker
       inkscape:isstock="true"
       style="overflow:visible"
       id="marker5811"
       refX="0"
       refY="0"
       orient="auto"
       inkscape:stockid="Arrow2Mend"
       inkscape:collect="always">
      <path
         transform="scale(-0.6)"
         d="M 8.7185878,4.0337352 -2.2072895,0.01601326 8.7185884,-4.0017078 c -1.7454984,2.3720609 -1.7354408,5.6174519 -6e-7,8.035443 z"
         style="fill:#000000;fill-opacity:1;fill-rule:evenodd;stroke:#000000;stroke-width:0.625;stroke-linejoin:round;stroke-opacity:1"
         id="path5809"
         inkscape:connector-curvature="0" />
    </marker>
    <marker
       inkscape:isstock="true"
       style="overflow:visible"
       id="marker5807"
       refX="0"
       refY="0"
       orient="auto"
       inkscape:stockid="Arrow2Mend"
       inkscape:collect="always">
      <path
         transform="scale(-0.6)"
         d="M 8.7185878,4.0337352 -2.2072895,0.01601326 8.7185884,-4.0017078 c -1.7454984,2.3720609 -1.7354408,5.6174519 -6e-7,8.035443 z"
         style="fill:#000000;fill-opacity:1;fill-rule:evenodd;stroke:#000000;stroke-width:0.625;stroke-linejoin:round;stroke-opacity:1"
         id="path5805"
         inkscape:connector-curvature="0" />
    </marker>
    <marker
       inkscape:stockid="Arrow2Mend"
       orient="auto"
       refY="0"
       refX="0"
       id="Arrow2Mend"
       style="overflow:visible"
       inkscape:isstock="true"
       inkscape:collect="always">
      <path
         id="path5564"
         style="fill:#000000;fill-opacity:1;fill-rule:evenodd;stroke:#000000;stroke-width:0.625;stroke-linejoin:round;stroke-opacity:1"
         d="M 8.7185878,4.0337352 -2.2072895,0.01601326 8.7185884,-4.0017078 c -1.7454984,2.3720609 -1.7354408,5.6174519 -6e-7,8.035443 z"
         transform="scale(-0.6)"
         inkscape:connector-curvature="0" />
    </marker>
    <marker
       inkscape:stockid="Arrow2Lend"
       orient="auto"
       refY="0"
       refX="0"
       id="marker5389"
       style="overflow:visible"
       inkscape:isstock="true">
      <path
         inkscape:connector-curvature="0"
         id="path5387"
         style="fill:#000000;fill-opacity:1;fill-rule:evenodd;stroke:#000000;stroke-width:0.625;stroke-linejoin:round;stroke-opacity:1"
         d="M 8.7185878,4.0337352 -2.2072895,0.01601326 8.7185884,-4.0017078 c -1.7454984,2.3720609 -1.7354408,5.6174519 -6e-7,8.035443 z"
         transform="matrix(-1.1,0,0,-1.1,-1.1,0)" />
    </marker>
    <marker
       inkscape:isstock="true"
       style="overflow:visible"
       id="marker12886"
       refX="0"
       refY="0"
       orient="auto"
       inkscape:stockid="Arrow2Lend">
      <path
         transform="matrix(-1.1,0,0,-1.1,-1.1,0)"
         d="M 8.7185878,4.0337352 -2.2072895,0.01601326 8.7185884,-4.0017078 c -1.7454984,2.3720609 -1.7354408,5.6174519 -6e-7,8.035443 z"
         style="fill:#000000;fill-opacity:1;fill-rule:evenodd;stroke:#000000;stroke-width:0.625;stroke-linejoin:round;stroke-opacity:1"
         id="path12884"
         inkscape:connector-curvature="0" />
    </marker>
    <marker
       inkscape:isstock="true"
       style="overflow:visible"
       id="marker6866"
       refX="0"
       refY="0"
       orient="auto"
       inkscape:stockid="Arrow2Lend">
      <path
         transform="matrix(-1.1,0,0,-1.1,-1.1,0)"
         d="M 8.7185878,4.0337352 -2.2072895,0.01601326 8.7185884,-4.0017078 c -1.7454984,2.3720609 -1.7354408,5.6174519 -6e-7,8.035443 z"
         style="fill:#000000;fill-opacity:1;fill-rule:evenodd;stroke:#000000;stroke-width:0.625;stroke-linejoin:round;stroke-opacity:1"
         id="path6864"
         inkscape:connector-curvature="0" />
    </marker>
    <marker
       inkscape:stockid="Arrow1Lend"
       orient="auto"
       refY="0"
       refX="0"
       id="Arrow1Lend"
       style="overflow:visible"
       inkscape:isstock="true">
      <path
         id="path4721"
         d="M 0,0 5,-5 -12.5,0 5,5 Z"
         style="fill:#000000;fill-opacity:1;fill-rule:evenodd;stroke:#000000;stroke-width:1.00000003pt;stroke-opacity:1"
         transform="matrix(-0.8,0,0,-0.8,-10,0)"
         inkscape:connector-curvature="0" />
    </marker>
    <marker
       inkscape:stockid="Arrow1Send"
       orient="auto"
       refY="0"
       refX="0"
       id="Arrow1Send"
       style="overflow:visible"
       inkscape:isstock="true">
      <path
         id="path4733"
         d="M 0,0 5,-5 -12.5,0 5,5 Z"
         style="fill:#000000;fill-opacity:1;fill-rule:evenodd;stroke:#000000;stroke-width:1.00000003pt;stroke-opacity:1"
         transform="matrix(-0.2,0,0,-0.2,-1.2,0)"
         inkscape:connector-curvature="0" />
    </marker>
    <marker
       inkscape:isstock="true"
       style="overflow:visible"
       id="marker12886-3"
       refX="0"
       refY="0"
       orient="auto"
       inkscape:stockid="Arrow2Lend">
      <path
         transform="matrix(-1.1,0,0,-1.1,-1.1,0)"
         d="M 8.7185878,4.0337352 -2.2072895,0.01601326 8.7185884,-4.0017078 c -1.7454984,2.3720609 -1.7354408,5.6174519 -6e-7,8.035443 z"
         style="fill:#000000;fill-opacity:1;fill-rule:evenodd;stroke:#000000;stroke-width:0.625;stroke-linejoin:round;stroke-opacity:1"
         id="path12884-6"
         inkscape:connector-curvature="0" />
    </marker>
    <marker
       inkscape:isstock="true"
       style="overflow:visible"
       id="marker1628"
       refX="0"
       refY="0"
       orient="auto"
       inkscape:stockid="Arrow2Mend">
      <path
         transform="scale(-0.6)"
         d="M 8.7185878,4.0337352 -2.2072895,0.01601326 8.7185884,-4.0017078 c -1.7454984,2.3720609 -1.7354408,5.6174519 -6e-7,8.035443 z"
         style="fill:#000000;fill-opacity:1;fill-rule:evenodd;stroke:#000000;stroke-width:0.625;stroke-linejoin:round;stroke-opacity:1"
         id="path1626"
         inkscape:connector-curvature="0" />
    </marker>
  </defs>
  <sodipodi:namedview
     id="base"
     pagecolor="#ffffff"
     bordercolor="#666666"
     borderopacity="1.0"
     inkscape:pageopacity="0.0"
     inkscape:pageshadow="2"
     inkscape:zoom="0.35355339"
     inkscape:cx="-22.418678"
     inkscape:cy="679.74419"
     inkscape:document-units="mm"
     inkscape:current-layer="layer1"
     showgrid="false"
     inkscape:snap-center="false"
     inkscape:window-width="1362"
     inkscape:window-height="729"
     inkscape:window-x="0"
     inkscape:window-y="37"
     inkscape:window-maximized="0"
     units="mm"
     showguides="true"
     inkscape:guide-bbox="true"
     fit-margin-top="0"
     fit-margin-left="0"
     fit-margin-right="0"
     fit-margin-bottom="0"
     inkscape:snap-object-midpoints="false"
     inkscape:snap-bbox="true"
     inkscape:snap-bbox-edge-midpoints="true"
     inkscape:bbox-nodes="true"
     inkscape:snap-bbox-midpoints="true"
     inkscape:snap-smooth-nodes="true"
     inkscape:snap-intersection-paths="true"
     inkscape:snap-global="true"
     inkscape:snap-text-baseline="true"
     inkscape:measure-start="0,0"
     inkscape:measure-end="0,0">
    <sodipodi:guide
       position="2.8691805,28.897209"
       orientation="1,0"
       id="guide5837"
       inkscape:locked="false" />
    <sodipodi:guide
       position="-0.11668832,32.365566"
       orientation="0,1"
       id="guide5473"
       inkscape:locked="false" />
    <sodipodi:guide
       position="-1.9102513,12.676687"
       orientation="0,1"
       id="guide5475"
       inkscape:locked="false" />
    <sodipodi:guide
       position="129.81319,26.364926"
       orientation="1,0"
       id="guide6104"
       inkscape:locked="false" />
    <sodipodi:guide
       position="74.836651,22.519257"
       orientation="1,0"
       id="guide6106"
       inkscape:locked="false" />
    <sodipodi:guide
       position="8.2130813,38.686409"
       orientation="0,1"
       id="guide6108"
       inkscape:locked="false" />
    <sodipodi:guide
       position="6.7586484,33.984507"
       orientation="1,0"
       id="guide6110"
       inkscape:locked="false" />
    <sodipodi:guide
       position="-1.4845335e-06,22.519257"
       orientation="1,0"
       id="guide6112"
       inkscape:locked="false" />
    <sodipodi:guide
       position="17.613431,22.702488"
       orientation="1,0"
       id="guide6114"
       inkscape:locked="false" />
    <sodipodi:guide
       position="14.351267,26.835168"
       orientation="0,1"
       id="guide6116"
       inkscape:locked="false" />
    <sodipodi:guide
       position="38.647884,27.709586"
       orientation="0,1"
       id="guide6124"
       inkscape:locked="false" />
    <sodipodi:guide
       position="80.104602,20.246436"
       orientation="1,0"
       id="guide6126"
       inkscape:locked="false" />
    <sodipodi:guide
       position="63.521523,136.68541"
       orientation="1,0"
       id="guide6128"
       inkscape:locked="false" />
    <sodipodi:guide
       position="37.418324,12.672741"
       orientation="1,0"
       id="guide6132"
       inkscape:locked="false" />
    <sodipodi:guide
       position="28.580491,6.5336987"
       orientation="0,1"
       id="guide6134"
       inkscape:locked="false" />
    <sodipodi:guide
       position="38.893742,18.272884"
       orientation="0,1"
       id="guide935"
       inkscape:locked="false" />
    <sodipodi:guide
       position="40.901654,22.84305"
       orientation="0,1"
       id="guide1024"
       inkscape:locked="false" />
    <sodipodi:guide
       position="-60.242543,116.09228"
       orientation="1,0"
       id="guide1746"
       inkscape:locked="false" />
  </sodipodi:namedview>
  <metadata
     id="metadata5">
    <rdf:RDF>
      <cc:Work
         rdf:about="">
        <dc:format>image/svg+xml</dc:format>
        <dc:type
           rdf:resource="http://purl.org/dc/dcmitype/StillImage" />
        <dc:title />
      </cc:Work>
    </rdf:RDF>
  </metadata>
  <g
     inkscape:label="Layer 1"
     inkscape:groupmode="layer"
     id="layer1"
     transform="translate(-39.289393,-137.11844)">
    <text
       xml:space="preserve"
       style="font-style:normal;font-weight:normal;font-size:4.13393021px;line-height:125%;font-family:'Bitstream Vera Sans';letter-spacing:0px;word-spacing:0px;fill:#000000;fill-opacity:1;stroke:none;stroke-width:0.26458332;stroke-linecap:butt;stroke-linejoin:miter;stroke-miterlimit:4;stroke-dasharray:none;stroke-opacity:1"
       x="41.874485"
       y="163.66119"
       id="text4489-3"
       transform="scale(0.99970829,1.0002918)"><tspan
         sodipodi:role="line"
         id="tspan4487-6"
         x="41.874485"
         y="163.66119"
         style="stroke-width:0.26458332;stroke-miterlimit:4;stroke-dasharray:none">Ação</tspan></text>
    <text
       xml:space="preserve"
       style="font-style:normal;font-weight:normal;font-size:4.13393021px;line-height:125%;font-family:'Bitstream Vera Sans';letter-spacing:0px;word-spacing:0px;fill:#000000;fill-opacity:1;stroke:none;stroke-width:0.26458332;stroke-linecap:butt;stroke-linejoin:miter;stroke-miterlimit:4;stroke-dasharray:none;stroke-opacity:1"
       x="64.472885"
       y="163.59761"
       id="text4489-3-7"
       transform="scale(0.99970829,1.0002918)"><tspan
         sodipodi:role="line"
         id="tspan4487-6-5"
         x="64.472885"
         y="163.59761"
         style="stroke-width:0.26458332;stroke-miterlimit:4;stroke-dasharray:none">Dados</tspan></text>
    <text
       id="text4547"
       y="171.49551"
       x="89.709831"
       style="font-style:normal;font-weight:normal;font-size:4.13393021px;line-height:125%;font-family:'Bitstream Vera Sans';letter-spacing:0px;word-spacing:0px;fill:#000000;fill-opacity:1;stroke:none;stroke-width:0.26458332;stroke-linecap:butt;stroke-linejoin:miter;stroke-miterlimit:4;stroke-dasharray:none;stroke-opacity:1"
       xml:space="preserve"
       transform="scale(0.99970829,1.0002918)"><tspan
         style="stroke-width:0.26458332;stroke-miterlimit:4;stroke-dasharray:none"
         y="171.49551"
         x="89.709831"
         id="tspan4545"
         sodipodi:role="line">Semântica</tspan></text>
    <rect
       ry="0"
       rx="0"
       y="159.23097"
       x="40.053337"
       height="5.872829"
       width="13.523892"
       id="rect4565"
       style="fill:none;fill-opacity:1;stroke:#000000;stroke-width:0.26458332;stroke-linejoin:miter;stroke-miterlimit:4;stroke-dasharray:none;stroke-dashoffset:0;stroke-opacity:1" />
    <rect
       style="fill:none;fill-opacity:1;stroke:#000000;stroke-width:0.26458332;stroke-linejoin:miter;stroke-miterlimit:4;stroke-dasharray:none;stroke-dashoffset:0;stroke-opacity:1"
       id="rect4567"
       width="13.734965"
       height="5.872829"
       x="64.070023"
       y="159.23099"
       rx="0"
       ry="0" />
    <rect
       style="fill:none;fill-opacity:1;stroke:#000000;stroke-width:0.26458332;stroke-linejoin:miter;stroke-miterlimit:4;stroke-dasharray:none;stroke-dashoffset:0;stroke-opacity:1"
       id="rect4571"
       width="23.87418"
       height="5.872829"
       x="88.556625"
       y="167.56323"
       rx="0"
       ry="0" />
    <text
       xml:space="preserve"
       style="font-style:normal;font-weight:normal;font-size:2.9765625px;line-height:125%;font-family:'Bitstream Vera Sans';letter-spacing:0px;word-spacing:0px;fill:#000000;fill-opacity:1;stroke:none;stroke-width:0.26458332px;stroke-linecap:butt;stroke-linejoin:miter;stroke-opacity:1"
       x="77.236893"
       y="180.32707"
       id="text4668"><tspan
         sodipodi:role="line"
         id="tspan4666"
         x="77.236893"
         y="180.32707"
         style="stroke-width:0.26458332px">envelopada em</tspan></text>
    <text
       id="text4678"
       y="154.13329"
       x="82.04274"
       style="font-style:normal;font-weight:normal;font-size:2.9765625px;line-height:100%;font-family:'Bitstream Vera Sans';text-align:center;letter-spacing:0px;word-spacing:0px;text-anchor:middle;fill:#000000;fill-opacity:1;stroke:none;stroke-width:0.26458332px;stroke-linecap:butt;stroke-linejoin:miter;stroke-opacity:1"
       xml:space="preserve"><tspan
         style="line-height:100%;text-align:center;text-anchor:middle;stroke-width:0.26458332px"
         y="154.13329"
         x="82.04274"
         sodipodi:role="line"
         id="tspan5829">ordem</tspan></text>
    <rect
       style="fill:none;fill-opacity:1;stroke:#000000;stroke-width:0.26458332;stroke-linejoin:miter;stroke-miterlimit:4;stroke-dasharray:none;stroke-dashoffset:0;stroke-opacity:1"
       id="rect4680"
       width="74.572083"
       height="19.428448"
       x="39.421684"
       y="157.64351"
       rx="0.53453904"
       ry="0.5345391" />
    <text
       id="text4686"
       y="165.14972"
       x="81.043259"
       style="font-style:normal;font-weight:normal;font-size:2.9765625px;line-height:125%;font-family:'Bitstream Vera Sans';letter-spacing:0px;word-spacing:0px;fill:#000000;fill-opacity:1;stroke:none;stroke-width:0.26458332px;stroke-linecap:butt;stroke-linejoin:miter;stroke-opacity:1"
       xml:space="preserve"><tspan
         style="stroke-width:0.26458332px"
         y="165.14972"
         x="81.043259"
         id="tspan4684"
         sodipodi:role="line">têm</tspan></text>
    <text
       xml:space="preserve"
       style="font-style:normal;font-weight:normal;font-size:2.9765625px;line-height:125%;font-family:'Bitstream Vera Sans';letter-spacing:0px;word-spacing:0px;fill:#000000;fill-opacity:1;stroke:none;stroke-width:0.26458332px;stroke-linecap:butt;stroke-linejoin:miter;stroke-opacity:1"
       x="39.686272"
       y="176.51605"
       id="text4690"><tspan
         sodipodi:role="line"
         id="tspan4688"
         x="39.686272"
         y="176.51605"
         style="font-weight:bold;stroke-width:0.26458332px">Interação</tspan></text>
    <text
       transform="scale(0.99970829,1.0002918)"
       id="text4706"
       y="160.78778"
       x="77.954971"
       style="font-style:normal;font-weight:normal;font-size:3.09726644px;line-height:125%;font-family:'Bitstream Vera Sans';letter-spacing:0px;word-spacing:0px;fill:#000000;fill-opacity:1;stroke:none;stroke-width:0.26458332;stroke-linecap:butt;stroke-linejoin:miter;stroke-miterlimit:4;stroke-dasharray:none;stroke-opacity:1"
       xml:space="preserve"><tspan
         id="tspan4704"
         style="font-weight:bold;font-size:2.46944451px;stroke-width:0.26458332;stroke-miterlimit:4;stroke-dasharray:none"
         y="160.78778"
         x="77.954971"
         sodipodi:role="line">D</tspan></text>
    <text
       xml:space="preserve"
       style="font-style:normal;font-weight:normal;font-size:3.09726644px;line-height:125%;font-family:'Bitstream Vera Sans';letter-spacing:0px;word-spacing:0px;fill:#000000;fill-opacity:1;stroke:none;stroke-width:0.26458332;stroke-linecap:butt;stroke-linejoin:miter;stroke-miterlimit:4;stroke-dasharray:none;stroke-opacity:1"
       x="53.709557"
       y="160.78778"
       id="text4710"
       transform="scale(0.99970829,1.0002918)"><tspan
         sodipodi:role="line"
         x="53.709557"
         y="160.78778"
         style="font-weight:bold;font-size:2.46944451px;stroke-width:0.26458332;stroke-miterlimit:4;stroke-dasharray:none"
         id="tspan4708">D</tspan></text>
    <g
       id="g6081"
       transform="translate(77.988759,-20.396087)">
      <rect
         style="fill:none;fill-opacity:1;stroke:#000000;stroke-width:0.26458332;stroke-linejoin:miter;stroke-miterlimit:4;stroke-dasharray:none;stroke-dashoffset:0;stroke-opacity:1"
         id="rect5369"
         width="22.414312"
         height="5.8729501"
         x="13.590689"
         y="157.64682"
         rx="0"
         ry="0" />
      <text
         xml:space="preserve"
         style="font-style:normal;font-weight:normal;font-size:4.13396168px;line-height:125%;font-family:'Bitstream Vera Sans';letter-spacing:0px;word-spacing:0px;fill:#000000;fill-opacity:1;stroke:none;stroke-width:0.26458332;stroke-linecap:butt;stroke-linejoin:miter;stroke-miterlimit:4;stroke-dasharray:none;stroke-opacity:1"
         x="13.790243"
         y="161.67557"
         id="text5373"
         transform="scale(0.9996998,1.0003003)"><tspan
           sodipodi:role="line"
           id="tspan5371"
           x="13.790243"
           y="161.67557"
           style="stroke-width:0.26458332;stroke-miterlimit:4;stroke-dasharray:none">Paradigma</tspan></text>
    </g>
    <g
       id="g6088"
       transform="translate(48.736908,-22.628374)">
      <rect
         ry="0"
         rx="0"
         y="167.46254"
         x="17.229183"
         height="5.8729925"
         width="19.571108"
         id="rect4485"
         style="fill:none;fill-opacity:1;stroke:#000000;stroke-width:0.26458335;stroke-linejoin:miter;stroke-miterlimit:4;stroke-dasharray:none;stroke-dashoffset:0;stroke-opacity:1" />
      <text
         transform="scale(0.99969569,1.0003044)"
         id="text4489"
         y="171.88834"
         x="17.415672"
         style="font-style:normal;font-weight:normal;font-size:4.13396168px;line-height:125%;font-family:'Bitstream Vera Sans';letter-spacing:0px;word-spacing:0px;fill:#000000;fill-opacity:1;stroke:none;stroke-width:0.26458332;stroke-linecap:butt;stroke-linejoin:miter;stroke-miterlimit:4;stroke-dasharray:none;stroke-opacity:1"
         xml:space="preserve"><tspan
           style="stroke-width:0.26458332;stroke-miterlimit:4;stroke-dasharray:none"
           y="171.88834"
           x="17.415672"
           id="tspan4487"
           sodipodi:role="line">Protocolo</tspan></text>
      <text
         xml:space="preserve"
         style="font-style:normal;font-weight:normal;font-size:3.0972898px;line-height:125%;font-family:'Bitstream Vera Sans';letter-spacing:0px;word-spacing:0px;fill:#000000;fill-opacity:1;stroke:none;stroke-width:0.26458332;stroke-linecap:butt;stroke-linejoin:miter;stroke-miterlimit:4;stroke-dasharray:none;stroke-opacity:1"
         x="36.93573"
         y="168.94897"
         id="text4714"
         transform="scale(0.99969569,1.0003044)"><tspan
           sodipodi:role="line"
           x="36.93573"
           y="168.94897"
           style="font-weight:bold;font-size:2.46946311px;fill:#000000;fill-opacity:1;stroke-width:0.26458332;stroke-miterlimit:4;stroke-dasharray:none"
           id="tspan4712">D</tspan></text>
    </g>
    <path
       style="fill:none;fill-rule:evenodd;stroke:#000000;stroke-width:0.26499999;stroke-linecap:butt;stroke-linejoin:miter;stroke-miterlimit:4;stroke-dasharray:none;stroke-opacity:1;marker-end:url(#Arrow2Mend)"
       d="m 77.7413,162.16721 c 22.75506,-0.009 22.75241,1.78114 22.75241,3.66213 v 1.2046"
       id="path11710"
       inkscape:connector-curvature="0"
       sodipodi:nodetypes="ccc" />
    <text
       xml:space="preserve"
       style="font-style:normal;font-weight:normal;font-size:2.97658491px;line-height:100%;font-family:'Bitstream Vera Sans';letter-spacing:0px;word-spacing:0px;fill:#000000;fill-opacity:1;stroke:none;stroke-width:0.26458332px;stroke-linecap:butt;stroke-linejoin:miter;stroke-opacity:1"
       x="76.305809"
       y="139.45486"
       id="text5379"
       transform="scale(0.9999879,1.0000121)"><tspan
         id="tspan5377"
         sodipodi:role="line"
         x="76.305809"
         y="139.45486"
         style="line-height:100%;stroke-width:0.26458332px">baseado</tspan></text>
    <path
       style="fill:none;fill-rule:evenodd;stroke:#000000;stroke-width:0.26499999;stroke-linecap:butt;stroke-linejoin:miter;stroke-miterlimit:4;stroke-dasharray:none;stroke-opacity:1;marker-end:url(#marker4939)"
       d="m 76.70772,144.83417 c 0,-5.23591 0,-4.64443 12.984796,-4.64443 h 1.354387"
       id="path5385"
       inkscape:connector-curvature="0"
       sodipodi:nodetypes="ccc" />
    <text
       transform="scale(0.99970829,1.0002918)"
       xml:space="preserve"
       style="font-style:normal;font-weight:normal;font-size:4.13393021px;line-height:125%;font-family:'Bitstream Vera Sans';letter-spacing:0px;word-spacing:0px;fill:#000000;fill-opacity:1;stroke:none;stroke-width:0.26458332;stroke-linecap:butt;stroke-linejoin:miter;stroke-miterlimit:4;stroke-dasharray:none;stroke-opacity:1"
       x="42.60038"
       y="171.49551"
       id="text5512"><tspan
         sodipodi:role="line"
         id="tspan5510"
         x="42.60038"
         y="171.49551"
         style="stroke-width:0.26458332;stroke-miterlimit:4;stroke-dasharray:none">Semântica</tspan></text>
    <rect
       ry="0"
       rx="0"
       y="167.56323"
       x="41.460754"
       height="5.872829"
       width="23.87418"
       id="rect5514"
       style="fill:none;fill-opacity:1;stroke:#000000;stroke-width:0.26458332;stroke-linejoin:miter;stroke-miterlimit:4;stroke-dasharray:none;stroke-dashoffset:0;stroke-opacity:1" />
    <path
       style="fill:none;fill-rule:evenodd;stroke:#000000;stroke-width:0.26499999;stroke-linecap:butt;stroke-linejoin:miter;stroke-miterlimit:4;stroke-dasharray:none;stroke-opacity:1;marker-end:url(#marker3165)"
       d="m 53.541445,162.1674 c 3.262161,0 3.36138,3.19288 3.36138,3.64151 l 3e-6,1.22503"
       id="path5817"
       inkscape:connector-curvature="0"
       sodipodi:nodetypes="ccc" />
    <text
       xml:space="preserve"
       style="font-style:normal;font-weight:normal;font-size:2.9765625px;line-height:125%;font-family:'Bitstream Vera Sans';letter-spacing:0px;word-spacing:0px;fill:#000000;fill-opacity:1;stroke:none;stroke-width:0.26458332px;stroke-linecap:butt;stroke-linejoin:miter;stroke-opacity:1"
       x="56.959896"
       y="164.31544"
       id="text5825"><tspan
         sodipodi:role="line"
         id="tspan5823"
         x="56.959896"
         y="164.31544"
         style="stroke-width:0.26458332px">tem</tspan></text>
    <g
       transform="translate(49.772244,16.409167)"
       id="g6100">
      <rect
         style="fill:none;fill-opacity:1;stroke:#000000;stroke-width:0.26458332;stroke-linejoin:miter;stroke-miterlimit:4;stroke-dasharray:none;stroke-dashoffset:0;stroke-opacity:1"
         id="rect6090"
         width="19.773071"
         height="5.8729925"
         x="17.048941"
         y="167.46254"
         rx="0"
         ry="0" />
      <text
         xml:space="preserve"
         style="font-style:normal;font-weight:normal;font-size:4.13396168px;line-height:125%;font-family:'Bitstream Vera Sans';letter-spacing:0px;word-spacing:0px;fill:#000000;fill-opacity:1;stroke:none;stroke-width:0.26458332;stroke-linecap:butt;stroke-linejoin:miter;stroke-miterlimit:4;stroke-dasharray:none;stroke-opacity:1"
         x="17.415672"
         y="171.88834"
         id="text6094"
         transform="scale(0.99969569,1.0003044)"><tspan
           sodipodi:role="line"
           id="tspan6092"
           x="17.415672"
           y="171.88834"
           style="stroke-width:0.26458332;stroke-miterlimit:4;stroke-dasharray:none">Protocolo</tspan></text>
    </g>
    <path
       sodipodi:nodetypes="ccc"
       inkscape:connector-curvature="0"
       id="path6118"
       d="m 77.969333,162.16718 c 2.221721,0 2.221718,3.1931 2.221718,3.64173 l 3e-6,1.22503"
       style="fill:none;fill-rule:evenodd;stroke:#000000;stroke-width:0.26499999;stroke-linecap:butt;stroke-linejoin:miter;stroke-miterlimit:4;stroke-dasharray:none;stroke-opacity:1;marker-end:url(#marker6122)" />
    <g
       id="g7506">
      <text
         transform="scale(0.99970829,1.0002918)"
         id="text4489-3-7-3"
         y="171.55405"
         x="71.407242"
         style="font-style:normal;font-weight:normal;font-size:4.13393021px;line-height:125%;font-family:'Bitstream Vera Sans';letter-spacing:0px;word-spacing:0px;fill:#000000;fill-opacity:1;stroke:none;stroke-width:0.26458332;stroke-linecap:butt;stroke-linejoin:miter;stroke-miterlimit:4;stroke-dasharray:none;stroke-opacity:1"
         xml:space="preserve"><tspan
           style="stroke-width:0.26458332;stroke-miterlimit:4;stroke-dasharray:none"
           y="171.55405"
           x="71.407242"
           id="tspan4487-6-5-5"
           sodipodi:role="line">Sintaxe</tspan></text>
      <rect
         style="fill:none;fill-opacity:1;stroke:#000000;stroke-width:0.26458332;stroke-linejoin:miter;stroke-miterlimit:4;stroke-dasharray:none;stroke-dashoffset:0;stroke-opacity:1"
         id="rect4569"
         width="15.691405"
         height="5.8728333"
         x="71.277733"
         y="167.56323"
         rx="0"
         ry="0" />
    </g>
    <g
       transform="translate(0,-200000)"
       id="g1511">
      <text
         transform="scale(0.99970829,1.0002918)"
         id="text1407"
         y="163.66119"
         x="41.874485"
         style="font-style:normal;font-weight:normal;font-size:4.13393021px;line-height:125%;font-family:'Bitstream Vera Sans';letter-spacing:0px;word-spacing:0px;fill:#000000;fill-opacity:1;stroke:none;stroke-width:0.26458332;stroke-linecap:butt;stroke-linejoin:miter;stroke-miterlimit:4;stroke-dasharray:none;stroke-opacity:1"
         xml:space="preserve"><tspan
           style="stroke-width:0.26458332;stroke-miterlimit:4;stroke-dasharray:none"
           y="163.66119"
           x="41.874485"
           id="tspan1405"
           sodipodi:role="line">Ação</tspan></text>
      <text
         transform="scale(0.99970829,1.0002918)"
         id="text1411"
         y="163.59761"
         x="64.472885"
         style="font-style:normal;font-weight:normal;font-size:4.13393021px;line-height:125%;font-family:'Bitstream Vera Sans';letter-spacing:0px;word-spacing:0px;fill:#000000;fill-opacity:1;stroke:none;stroke-width:0.26458332;stroke-linecap:butt;stroke-linejoin:miter;stroke-miterlimit:4;stroke-dasharray:none;stroke-opacity:1"
         xml:space="preserve"><tspan
           style="stroke-width:0.26458332;stroke-miterlimit:4;stroke-dasharray:none"
           y="163.59761"
           x="64.472885"
           id="tspan1409"
           sodipodi:role="line">Dados</tspan></text>
      <text
         transform="scale(0.99970829,1.0002918)"
         xml:space="preserve"
         style="font-style:normal;font-weight:normal;font-size:4.13393021px;line-height:125%;font-family:'Bitstream Vera Sans';letter-spacing:0px;word-spacing:0px;fill:#000000;fill-opacity:1;stroke:none;stroke-width:0.26458332;stroke-linecap:butt;stroke-linejoin:miter;stroke-miterlimit:4;stroke-dasharray:none;stroke-opacity:1"
         x="89.709831"
         y="171.49551"
         id="text1415"><tspan
           sodipodi:role="line"
           id="tspan1413"
           x="89.709831"
           y="171.49551"
           style="stroke-width:0.26458332;stroke-miterlimit:4;stroke-dasharray:none">Semântica</tspan></text>
      <rect
         style="fill:none;fill-opacity:1;stroke:#000000;stroke-width:0.26458332;stroke-linejoin:miter;stroke-miterlimit:4;stroke-dasharray:none;stroke-dashoffset:0;stroke-opacity:1"
         id="rect1417"
         width="13.523892"
         height="5.872829"
         x="40.053337"
         y="159.23097"
         rx="0"
         ry="0" />
      <rect
         ry="0"
         rx="0"
         y="159.23099"
         x="64.070023"
         height="5.872829"
         width="13.734965"
         id="rect1419"
         style="fill:none;fill-opacity:1;stroke:#000000;stroke-width:0.26458332;stroke-linejoin:miter;stroke-miterlimit:4;stroke-dasharray:none;stroke-dashoffset:0;stroke-opacity:1" />
      <rect
         ry="0"
         rx="0"
         y="167.56323"
         x="88.556625"
         height="5.872829"
         width="23.87418"
         id="rect1421"
         style="fill:none;fill-opacity:1;stroke:#000000;stroke-width:0.26458332;stroke-linejoin:miter;stroke-miterlimit:4;stroke-dasharray:none;stroke-dashoffset:0;stroke-opacity:1" />
      <text
         id="text1425"
         y="180.88429"
         x="51.331543"
         style="font-style:normal;font-weight:normal;font-size:2.9765625px;line-height:125%;font-family:'Bitstream Vera Sans';letter-spacing:0px;word-spacing:0px;fill:#000000;fill-opacity:1;stroke:none;stroke-width:0.26458332px;stroke-linecap:butt;stroke-linejoin:miter;stroke-opacity:1"
         xml:space="preserve"><tspan
           style="stroke-width:0.26458332px"
           y="180.88429"
           x="51.331543"
           id="tspan1423"
           sodipodi:role="line">envelopada em</tspan></text>
      <text
         xml:space="preserve"
         style="font-style:normal;font-weight:normal;font-size:2.9765625px;line-height:100%;font-family:'Bitstream Vera Sans';text-align:center;letter-spacing:0px;word-spacing:0px;text-anchor:middle;fill:#000000;fill-opacity:1;stroke:none;stroke-width:0.26458332px;stroke-linecap:butt;stroke-linejoin:miter;stroke-opacity:1"
         x="43.874866"
         y="151.01593"
         id="text1429"><tspan
           id="tspan1427"
           sodipodi:role="line"
           x="43.874866"
           y="151.01593"
           style="line-height:100%;text-align:center;text-anchor:middle;stroke-width:0.26458332px">ordem</tspan></text>
      <rect
         ry="0.5345391"
         rx="0.53453904"
         y="157.64351"
         x="39.421684"
         height="19.428448"
         width="74.572083"
         id="rect1431"
         style="fill:none;fill-opacity:1;stroke:#000000;stroke-width:0.26458332;stroke-linejoin:miter;stroke-miterlimit:4;stroke-dasharray:none;stroke-dashoffset:0;stroke-opacity:1" />
      <text
         xml:space="preserve"
         style="font-style:normal;font-weight:normal;font-size:2.9765625px;line-height:125%;font-family:'Bitstream Vera Sans';letter-spacing:0px;word-spacing:0px;fill:#000000;fill-opacity:1;stroke:none;stroke-width:0.26458332px;stroke-linecap:butt;stroke-linejoin:miter;stroke-opacity:1"
         x="81.043259"
         y="165.14972"
         id="text1435"><tspan
           sodipodi:role="line"
           id="tspan1433"
           x="81.043259"
           y="165.14972"
           style="stroke-width:0.26458332px">têm</tspan></text>
      <text
         id="text1439"
         y="176.51605"
         x="39.686272"
         style="font-style:normal;font-weight:normal;font-size:2.9765625px;line-height:125%;font-family:'Bitstream Vera Sans';letter-spacing:0px;word-spacing:0px;fill:#000000;fill-opacity:1;stroke:none;stroke-width:0.26458332px;stroke-linecap:butt;stroke-linejoin:miter;stroke-opacity:1"
         xml:space="preserve"><tspan
           style="stroke-width:0.26458332px"
           y="176.51605"
           x="39.686272"
           id="tspan1437"
           sodipodi:role="line">Interação</tspan></text>
      <text
         xml:space="preserve"
         style="font-style:normal;font-weight:normal;font-size:3.09726644px;line-height:125%;font-family:'Bitstream Vera Sans';letter-spacing:0px;word-spacing:0px;fill:#000000;fill-opacity:1;stroke:none;stroke-width:0.26458332;stroke-linecap:butt;stroke-linejoin:miter;stroke-miterlimit:4;stroke-dasharray:none;stroke-opacity:1"
         x="77.954971"
         y="160.78778"
         id="text1443"
         transform="scale(0.99970829,1.0002918)"><tspan
           sodipodi:role="line"
           x="77.954971"
           y="160.78778"
           style="font-weight:bold;font-size:2.46944451px;stroke-width:0.26458332;stroke-miterlimit:4;stroke-dasharray:none"
           id="tspan1441">D</tspan></text>
      <text
         transform="scale(0.99970829,1.0002918)"
         id="text1447"
         y="160.78778"
         x="53.709557"
         style="font-style:normal;font-weight:normal;font-size:3.09726644px;line-height:125%;font-family:'Bitstream Vera Sans';letter-spacing:0px;word-spacing:0px;fill:#000000;fill-opacity:1;stroke:none;stroke-width:0.26458332;stroke-linecap:butt;stroke-linejoin:miter;stroke-miterlimit:4;stroke-dasharray:none;stroke-opacity:1"
         xml:space="preserve"><tspan
           id="tspan1445"
           style="font-weight:bold;font-size:2.46944451px;stroke-width:0.26458332;stroke-miterlimit:4;stroke-dasharray:none"
           y="160.78778"
           x="53.709557"
           sodipodi:role="line">D</tspan></text>
      <g
         transform="translate(77.988759,-9.392708)"
         id="g1455">
        <rect
           ry="0"
           rx="0"
           y="157.64682"
           x="13.590689"
           height="5.8729501"
           width="22.414312"
           id="rect1449"
           style="fill:none;fill-opacity:1;stroke:#000000;stroke-width:0.26458332;stroke-linejoin:miter;stroke-miterlimit:4;stroke-dasharray:none;stroke-dashoffset:0;stroke-opacity:1" />
        <text
           transform="scale(0.9996998,1.0003003)"
           id="text1453"
           y="161.67557"
           x="13.790243"
           style="font-style:normal;font-weight:normal;font-size:4.13396168px;line-height:125%;font-family:'Bitstream Vera Sans';letter-spacing:0px;word-spacing:0px;fill:#000000;fill-opacity:1;stroke:none;stroke-width:0.26458332;stroke-linecap:butt;stroke-linejoin:miter;stroke-miterlimit:4;stroke-dasharray:none;stroke-opacity:1"
           xml:space="preserve"><tspan
             style="stroke-width:0.26458332;stroke-miterlimit:4;stroke-dasharray:none"
             y="161.67557"
             x="13.790243"
             id="tspan1451"
             sodipodi:role="line">Paradigma</tspan></text>
      </g>
      <g
         transform="translate(32.993993,-19.208458)"
         id="g1467">
        <rect
           style="fill:none;fill-opacity:1;stroke:#000000;stroke-width:0.26458335;stroke-linejoin:miter;stroke-miterlimit:4;stroke-dasharray:none;stroke-dashoffset:0;stroke-opacity:1"
           id="rect1457"
           width="19.571108"
           height="5.8729925"
           x="17.229183"
           y="167.46254"
           rx="0"
           ry="0" />
        <text
           xml:space="preserve"
           style="font-style:normal;font-weight:normal;font-size:4.13396168px;line-height:125%;font-family:'Bitstream Vera Sans';letter-spacing:0px;word-spacing:0px;fill:#000000;fill-opacity:1;stroke:none;stroke-width:0.26458332;stroke-linecap:butt;stroke-linejoin:miter;stroke-miterlimit:4;stroke-dasharray:none;stroke-opacity:1"
           x="17.415672"
           y="171.88834"
           id="text1461"
           transform="scale(0.99969569,1.0003044)"><tspan
             sodipodi:role="line"
             id="tspan1459"
             x="17.415672"
             y="171.88834"
             style="stroke-width:0.26458332;stroke-miterlimit:4;stroke-dasharray:none">Protocolo</tspan></text>
        <text
           transform="scale(0.99969569,1.0003044)"
           id="text1465"
           y="168.94897"
           x="36.93573"
           style="font-style:normal;font-weight:normal;font-size:3.0972898px;line-height:125%;font-family:'Bitstream Vera Sans';letter-spacing:0px;word-spacing:0px;fill:#000000;fill-opacity:1;stroke:none;stroke-width:0.26458332;stroke-linecap:butt;stroke-linejoin:miter;stroke-miterlimit:4;stroke-dasharray:none;stroke-opacity:1"
           xml:space="preserve"><tspan
             id="tspan1463"
             style="font-weight:bold;font-size:2.46946311px;fill:#000000;fill-opacity:1;stroke-width:0.26458332;stroke-miterlimit:4;stroke-dasharray:none"
             y="168.94897"
             x="36.93573"
             sodipodi:role="line">D</tspan></text>
      </g>
      <path
         sodipodi:nodetypes="csc"
         inkscape:connector-curvature="0"
         id="path1469"
         d="m 46.048041,177.2003 c 0,5.34122 18.921665,6.14299 24.502783,6.14299 h 3.305732"
         style="fill:none;fill-rule:evenodd;stroke:#000000;stroke-width:0.26499999;stroke-linecap:butt;stroke-linejoin:miter;stroke-miterlimit:4;stroke-dasharray:none;stroke-opacity:1;marker-end:url(#marker5815)" />
      <path
         style="fill:none;fill-rule:evenodd;stroke:#000000;stroke-width:0.26499999;stroke-linecap:butt;stroke-linejoin:miter;stroke-miterlimit:4;stroke-dasharray:none;stroke-opacity:1;marker-end:url(#marker5811)"
         d="m 50.094807,151.19058 c -5.343901,0 -5.524292,4.0505 -5.525266,4.5334 l -0.0028,1.38806"
         id="path1471"
         inkscape:connector-curvature="0"
         sodipodi:nodetypes="ccc" />
      <path
         sodipodi:nodetypes="ccc"
         inkscape:connector-curvature="0"
         id="path1473"
         d="m 77.7413,162.16721 c 22.75506,-0.009 22.75241,1.78114 22.75241,3.66213 v 1.2046"
         style="fill:none;fill-rule:evenodd;stroke:#000000;stroke-width:0.26499999;stroke-linecap:butt;stroke-linejoin:miter;stroke-miterlimit:4;stroke-dasharray:none;stroke-opacity:1;marker-end:url(#Arrow2Mend)" />
      <text
         transform="scale(0.9999879,1.0000121)"
         id="text1477"
         y="154.1869"
         x="72.500374"
         style="font-style:normal;font-weight:normal;font-size:2.97658491px;line-height:100%;font-family:'Bitstream Vera Sans';letter-spacing:0px;word-spacing:0px;fill:#000000;fill-opacity:1;stroke:none;stroke-width:0.26458332px;stroke-linecap:butt;stroke-linejoin:miter;stroke-opacity:1"
         xml:space="preserve"><tspan
           style="line-height:100%;stroke-width:0.26458332px"
           y="154.1869"
           x="72.500374"
           sodipodi:role="line"
           id="tspan1475">baseado</tspan></text>
      <path
         sodipodi:nodetypes="cc"
         inkscape:connector-curvature="0"
         id="path1479"
         d="M 69.794284,151.19313 H 91.046903"
         style="fill:none;fill-rule:evenodd;stroke:#000000;stroke-width:0.26499999;stroke-linecap:butt;stroke-linejoin:miter;stroke-miterlimit:4;stroke-dasharray:none;stroke-opacity:1;marker-end:url(#marker5807)" />
      <text
         id="text1483"
         y="171.49551"
         x="42.60038"
         style="font-style:normal;font-weight:normal;font-size:4.13393021px;line-height:125%;font-family:'Bitstream Vera Sans';letter-spacing:0px;word-spacing:0px;fill:#000000;fill-opacity:1;stroke:none;stroke-width:0.26458332;stroke-linecap:butt;stroke-linejoin:miter;stroke-miterlimit:4;stroke-dasharray:none;stroke-opacity:1"
         xml:space="preserve"
         transform="scale(0.99970829,1.0002918)"><tspan
           style="stroke-width:0.26458332;stroke-miterlimit:4;stroke-dasharray:none"
           y="171.49551"
           x="42.60038"
           id="tspan1481"
           sodipodi:role="line">Semântica</tspan></text>
      <rect
         style="fill:none;fill-opacity:1;stroke:#000000;stroke-width:0.26458332;stroke-linejoin:miter;stroke-miterlimit:4;stroke-dasharray:none;stroke-dashoffset:0;stroke-opacity:1"
         id="rect1485"
         width="23.87418"
         height="5.872829"
         x="41.460754"
         y="167.56323"
         rx="0"
         ry="0" />
      <path
         sodipodi:nodetypes="ccc"
         inkscape:connector-curvature="0"
         id="path1487"
         d="m 53.541445,162.1674 c 3.262161,0 3.36138,3.19288 3.36138,3.64151 l 3e-6,1.22503"
         style="fill:none;fill-rule:evenodd;stroke:#000000;stroke-width:0.26499999;stroke-linecap:butt;stroke-linejoin:miter;stroke-miterlimit:4;stroke-dasharray:none;stroke-opacity:1;marker-end:url(#marker5821)" />
      <text
         id="text1491"
         y="164.31544"
         x="56.959896"
         style="font-style:normal;font-weight:normal;font-size:2.9765625px;line-height:125%;font-family:'Bitstream Vera Sans';letter-spacing:0px;word-spacing:0px;fill:#000000;fill-opacity:1;stroke:none;stroke-width:0.26458332px;stroke-linecap:butt;stroke-linejoin:miter;stroke-opacity:1"
         xml:space="preserve"><tspan
           style="stroke-width:0.26458332px"
           y="164.31544"
           x="56.959896"
           id="tspan1489"
           sodipodi:role="line">tem</tspan></text>
      <g
         id="g1499"
         transform="translate(57.339649,12.944255)">
        <rect
           ry="0"
           rx="0"
           y="167.46254"
           x="17.048941"
           height="5.8729925"
           width="19.773071"
           id="rect1493"
           style="fill:none;fill-opacity:1;stroke:#000000;stroke-width:0.26458332;stroke-linejoin:miter;stroke-miterlimit:4;stroke-dasharray:none;stroke-dashoffset:0;stroke-opacity:1" />
        <text
           transform="scale(0.99969569,1.0003044)"
           id="text1497"
           y="171.88834"
           x="17.415672"
           style="font-style:normal;font-weight:normal;font-size:4.13396168px;line-height:125%;font-family:'Bitstream Vera Sans';letter-spacing:0px;word-spacing:0px;fill:#000000;fill-opacity:1;stroke:none;stroke-width:0.26458332;stroke-linecap:butt;stroke-linejoin:miter;stroke-miterlimit:4;stroke-dasharray:none;stroke-opacity:1"
           xml:space="preserve"><tspan
             style="stroke-width:0.26458332;stroke-miterlimit:4;stroke-dasharray:none"
             y="171.88834"
             x="17.415672"
             id="tspan1495"
             sodipodi:role="line">Protocolo</tspan></text>
      </g>
      <path
         style="fill:none;fill-rule:evenodd;stroke:#000000;stroke-width:0.26499999;stroke-linecap:butt;stroke-linejoin:miter;stroke-miterlimit:4;stroke-dasharray:none;stroke-opacity:1;marker-end:url(#marker6122)"
         d="m 77.969333,162.16718 c 2.221721,0 2.221718,3.1931 2.221718,3.64173 l 3e-6,1.22503"
         id="path1501"
         inkscape:connector-curvature="0"
         sodipodi:nodetypes="ccc" />
      <g
         id="g1509">
        <text
           xml:space="preserve"
           style="font-style:normal;font-weight:normal;font-size:4.13393021px;line-height:125%;font-family:'Bitstream Vera Sans';letter-spacing:0px;word-spacing:0px;fill:#000000;fill-opacity:1;stroke:none;stroke-width:0.26458332;stroke-linecap:butt;stroke-linejoin:miter;stroke-miterlimit:4;stroke-dasharray:none;stroke-opacity:1"
           x="71.407242"
           y="171.55405"
           id="text1505"
           transform="scale(0.99970829,1.0002918)"><tspan
             sodipodi:role="line"
             id="tspan1503"
             x="71.407242"
             y="171.55405"
             style="stroke-width:0.26458332;stroke-miterlimit:4;stroke-dasharray:none">Sintaxe</tspan></text>
        <rect
           ry="0"
           rx="0"
           y="167.56323"
           x="71.277733"
           height="5.8728333"
           width="15.691405"
           id="rect1507"
           style="fill:none;fill-opacity:1;stroke:#000000;stroke-width:0.26458332;stroke-linejoin:miter;stroke-miterlimit:4;stroke-dasharray:none;stroke-dashoffset:0;stroke-opacity:1" />
      </g>
    </g>
    <path
       sodipodi:nodetypes="cc"
       inkscape:connector-curvature="0"
       id="path3269"
       d="m 76.70772,177.07196 c 7e-6,3.59374 0,6.27133 0,6.27133"
       style="fill:none;fill-rule:evenodd;stroke:#000000;stroke-width:0.26499999;stroke-linecap:butt;stroke-linejoin:miter;stroke-miterlimit:4;stroke-dasharray:none;stroke-opacity:1;marker-end:url(#marker3273)" />
    <path
       style="fill:none;fill-rule:evenodd;stroke:#000000;stroke-width:0.26499999;stroke-linecap:butt;stroke-linejoin:miter;stroke-miterlimit:4;stroke-dasharray:none;stroke-opacity:1;marker-end:url(#marker5137)"
       d="m 76.70517,150.83945 c 7e-6,3.59374 0,6.27133 0,6.27133"
       id="path5133"
       inkscape:connector-curvature="0"
       sodipodi:nodetypes="cc" />
  </g>
</svg>
